[
  {
    "link_thumb": "https://live.staticflickr.com/65535/49711154651_861af08144_n.jpg",
    "id_album": "-437872736",
    "description": "Creature_185539",
    "title": "Creature_185539",
    "link_img": "https://live.staticflickr.com/65535/49711154651_f531251826_o.jpg",
    "id_image": "Creature_185539",
    "count_view": 0
  },
  {
    "link_thumb": "https://live.staticflickr.com/65535/49711243813_319cae1a24_n.jpg",
    "id_album": "469960528",
    "description": "Knight_243479",
    "title": "Knight_243479",
    "link_img": "https://live.staticflickr.com/65535/49711243813_449edebf71_o.jpg",
    "id_image": "Knight_243479",
    "count_view": 0
  },
  {
    "link_thumb": "https://live.staticflickr.com/65535/49711424611_263f419183_n.jpg",
    "id_album": "850176884",
    "description": "Dragon_328424",
    "title": "Dragon_328424",
    "link_img": "https://live.staticflickr.com/65535/49711424611_23dd5c8e6b_o.jpg",
    "id_image": "Dragon_328424",
    "count_view": 0
  },
  {
    "link_thumb": "https://live.staticflickr.com/65535/49712208626_9ccae2cf5d_n.jpg",
    "id_album": "-1261420436",
    "description": "Warrior_435552",
    "title": "Warrior_435552",
    "link_img": "https://live.staticflickr.com/65535/49712208626_8bf98defba_o.jpg",
    "id_image": "Warrior_435552",
    "count_view": 0
  },
  {
    "link_thumb": "https://live.staticflickr.com/65535/49712213102_c3a87d343f_n.jpg",
    "id_album": "-833110404",
    "description": "Landscape_162745",
    "title": "Landscape_162745",
    "link_img": "https://live.staticflickr.com/65535/49712213102_4348585826_o.jpg",
    "id_image": "Landscape_162745",
    "count_view": 0
  },
  {
    "link_thumb": "https://live.staticflickr.com/65535/49711677967_3eb421b87c_n.jpg",
    "id_album": "850176884",
    "description": "Dragon_103576",
    "title": "Dragon_103576",
    "link_img": "https://live.staticflickr.com/65535/49711677967_9b751155e3_o.jpg",
    "id_image": "Dragon_103576",
    "count_view": 0
  },
  {
    "link_thumb": "https://live.staticflickr.com/65535/49711322147_aef82f1bc2_n.jpg",
    "id_album": "1187037014",
    "description": "Battle_394941",
    "title": "Battle_394941",
    "link_img": "https://live.staticflickr.com/65535/49711322147_1381b59cef_o.jpg",
    "id_image": "Battle_394941",
    "count_view": 0
  },
  {
    "link_thumb": "https://live.staticflickr.com/65535/49711650043_924b621096_n.jpg",
    "id_album": "431597977",
    "description": "Unicorn_96705",
    "title": "Unicorn_96705",
    "link_img": "https://live.staticflickr.com/65535/49711650043_44d6d4fcb8_o.jpg",
    "id_image": "Unicorn_96705",
    "count_view": 0
  },
  {
    "link_thumb": "https://live.staticflickr.com/65535/49711681921_7545f9b603_n.jpg",
    "id_album": "-1972042284",
    "description": "Fairy_828701",
    "title": "Fairy_828701",
    "link_img": "https://live.staticflickr.com/65535/49711681921_cb1924809b_o.jpg",
    "id_image": "Fairy_828701",
    "count_view": 0
  },
  {
    "link_thumb": "https://live.staticflickr.com/65535/49711684342_5fc9d90008_n.jpg",
    "id_album": "850176884",
    "description": "Dragon_122304",
    "title": "Dragon_122304",
    "link_img": "https://live.staticflickr.com/65535/49711684342_e6b9375dbb_o.jpg",
    "id_image": "Dragon_122304",
    "count_view": 0
  },
  {
    "link_thumb": "https://live.staticflickr.com/65535/49710327973_66da171606_n.jpg",
    "id_album": "-2109465612",
    "description": "Adventure_240985",
    "title": "Adventure_240985",
    "link_img": "https://live.staticflickr.com/65535/49710327973_9a14367f37_o.jpg",
    "id_image": "Adventure_240985",
    "count_view": 0
  },
  {
    "link_thumb": "https://live.staticflickr.com/65535/49712380172_b76208f5ca_n.jpg",
    "id_album": "-1862561193",
    "description": "Other_288100",
    "title": "Other_288100",
    "link_img": "https://live.staticflickr.com/65535/49712380172_8fcca7888c_o.jpg",
    "id_image": "Other_288100",
    "count_view": 0
  },
  {
    "link_thumb": "https://live.staticflickr.com/65535/49711305863_5d6ef38367_n.jpg",
    "id_album": "1402713104",
    "description": "Landscape_867432",
    "title": "Landscape_867432",
    "link_img": "https://live.staticflickr.com/65535/49711305863_b8dedf4203_o.jpg",
    "id_image": "Landscape_867432",
    "count_view": 0
  },
  {
    "link_thumb": "https://live.staticflickr.com/65535/49711393568_6461cb326a_n.jpg",
    "id_album": "-833110404",
    "description": "Landscape_343145",
    "title": "Landscape_343145",
    "link_img": "https://live.staticflickr.com/65535/49711393568_0617dfae25_o.jpg",
    "id_image": "Landscape_343145",
    "count_view": 0
  },
  {
    "link_thumb": "https://live.staticflickr.com/65535/49710685313_e159e0f0ef_n.jpg",
    "id_album": "-437872736",
    "description": "Creature_379186",
    "title": "Creature_379186",
    "link_img": "https://live.staticflickr.com/65535/49710685313_df1584b0e9_o.jpg",
    "id_image": "Creature_379186",
    "count_view": 0
  },
  {
    "link_thumb": "https://live.staticflickr.com/65535/49711450073_d8bc56517a_n.jpg",
    "id_album": "416744915",
    "description": "Lion_970420",
    "title": "Lion_970420",
    "link_img": "https://live.staticflickr.com/65535/49711450073_d3cd7b9724_o.jpg",
    "id_image": "Lion_970420",
    "count_view": 0
  },
  {
    "link_thumb": "https://live.staticflickr.com/65535/49712375661_57db5a1cf9_n.jpg",
    "id_album": "295204930",
    "description": "Women_316281",
    "title": "Women_316281",
    "link_img": "https://live.staticflickr.com/65535/49712375661_bf23d6ed7e_o.jpg",
    "id_image": "Women_316281",
    "count_view": 0
  },
  {
    "link_thumb": "https://live.staticflickr.com/65535/49711502737_8250b7777b_n.jpg",
    "id_album": "-437872736",
    "description": "Creature_287931",
    "title": "Creature_287931",
    "link_img": "https://live.staticflickr.com/65535/49711502737_e5190e84bf_o.jpg",
    "id_image": "Creature_287931",
    "count_view": 0
  },
  {
    "link_thumb": "https://live.staticflickr.com/65535/49711455658_deca606af8_n.jpg",
    "id_album": "1006968559",
    "description": "LordoftheRings_683791",
    "title": "LordoftheRings_683791",
    "link_img": "https://live.staticflickr.com/65535/49711455658_963ee23bb3_o.jpg",
    "id_image": "LordoftheRings_683791",
    "count_view": 0
  },
  {
    "link_thumb": "https://live.staticflickr.com/65535/49712284746_d9b76c1782_n.jpg",
    "id_album": "-709711865",
    "description": "Wolf_655553",
    "title": "Wolf_655553",
    "link_img": "https://live.staticflickr.com/65535/49712284746_1f4ab4481a_o.jpg",
    "id_image": "Wolf_655553",
    "count_view": 0
  },
  {
    "link_thumb": "https://live.staticflickr.com/65535/49711840947_c78bc60a48_n.jpg",
    "id_album": "850176884",
    "description": "Dragon_745695",
    "title": "Dragon_745695",
    "link_img": "https://live.staticflickr.com/65535/49711840947_02628c6db4_o.jpg",
    "id_image": "Dragon_745695",
    "count_view": 0
  },
  {
    "link_thumb": "https://live.staticflickr.com/65535/49712186666_8422558eae_n.jpg",
    "id_album": "431597977",
    "description": "Unicorn_984494",
    "title": "Unicorn_984494",
    "link_img": "https://live.staticflickr.com/65535/49712186666_b721e04513_o.jpg",
    "id_image": "Unicorn_984494",
    "count_view": 0
  },
  {
    "link_thumb": "https://live.staticflickr.com/65535/49710847993_b652b4e580_n.jpg",
    "id_album": "850176884",
    "description": "Dragon_200028",
    "title": "Dragon_200028",
    "link_img": "https://live.staticflickr.com/65535/49710847993_d803fb81ef_o.jpg",
    "id_image": "Dragon_200028",
    "count_view": 0
  },
  {
    "link_thumb": "https://live.staticflickr.com/65535/49711635558_b4219ed2b8_n.jpg",
    "id_album": "46520366",
    "description": "Turtle_366269",
    "title": "Turtle_366269",
    "link_img": "https://live.staticflickr.com/65535/49711635558_2d55b9fd37_o.jpg",
    "id_image": "Turtle_366269",
    "count_view": 0
  },
  {
    "link_thumb": "https://live.staticflickr.com/65535/49710615778_533265d61b_n.jpg",
    "id_album": "-437872736",
    "description": "Creature_176678",
    "title": "Creature_176678",
    "link_img": "https://live.staticflickr.com/65535/49710615778_15f91004e1_o.jpg",
    "id_image": "Creature_176678",
    "count_view": 0
  },
  {
    "link_thumb": "https://live.staticflickr.com/65535/49711311132_4e830236f6_n.jpg",
    "id_album": "1187037014",
    "description": "Battle_242057",
    "title": "Battle_242057",
    "link_img": "https://live.staticflickr.com/65535/49711311132_c3219b0bbc_o.jpg",
    "id_image": "Battle_242057",
    "count_view": 0
  },
  {
    "link_thumb": "https://live.staticflickr.com/65535/49711752076_059277e19f_n.jpg",
    "id_album": "857581314",
    "description": "Griffin_507431",
    "title": "Griffin_507431",
    "link_img": "https://live.staticflickr.com/65535/49711752076_2a7b32e135_o.jpg",
    "id_image": "Griffin_507431",
    "count_view": 0
  },
  {
    "link_thumb": "https://live.staticflickr.com/65535/49710870711_afdb63c436_n.jpg",
    "id_album": "-956471126",
    "description": "AliceInWonderland_189669",
    "title": "AliceInWonderland_189669",
    "link_img": "https://live.staticflickr.com/65535/49710870711_0a74c1c3b6_o.jpg",
    "id_image": "AliceInWonderland_189669",
    "count_view": 0
  },
  {
    "link_thumb": "https://live.staticflickr.com/65535/49712777327_e6da1548f8_n.jpg",
    "id_album": "1861288871",
    "description": "Women_748734",
    "title": "Women_748734",
    "link_img": "https://live.staticflickr.com/65535/49712777327_d552cdc7e8_o.jpg",
    "id_image": "Women_748734",
    "count_view": 0
  },
  {
    "link_thumb": "https://live.staticflickr.com/65535/49711702141_298e53943f_n.jpg",
    "id_album": "-1083189875",
    "description": "Forest_665329",
    "title": "Forest_665329",
    "link_img": "https://live.staticflickr.com/65535/49711702141_a65baa22fe_o.jpg",
    "id_image": "Forest_665329",
    "count_view": 0
  },
  {
    "link_thumb": "https://live.staticflickr.com/65535/49713026862_c9f40cf8a3_n.jpg",
    "id_album": "-1675918237",
    "description": "WomenWarrior_969413",
    "title": "WomenWarrior_969413",
    "link_img": "https://live.staticflickr.com/65535/49713026862_0a2eeb83b4_o.jpg",
    "id_image": "WomenWarrior_969413",
    "count_view": 0
  },
  {
    "link_thumb": "https://live.staticflickr.com/65535/49712373756_c2f34163d7_n.jpg",
    "id_album": "295204930",
    "description": "Women_299895",
    "title": "Women_299895",
    "link_img": "https://live.staticflickr.com/65535/49712373756_3caa344214_o.jpg",
    "id_image": "Women_299895",
    "count_view": 0
  },
  {
    "link_thumb": "https://live.staticflickr.com/65535/49710790648_95ed6eedbf_n.jpg",
    "id_album": "1903411565",
    "description": "Deer_546315",
    "title": "Deer_546315",
    "link_img": "https://live.staticflickr.com/65535/49710790648_99a52946fa_o.jpg",
    "id_image": "Deer_546315",
    "count_view": 0
  },
  {
    "link_thumb": "https://live.staticflickr.com/65535/49710938851_7ffb182f4c_n.jpg",
    "id_album": "523598895",
    "description": "Artistic_118674",
    "title": "Artistic_118674",
    "link_img": "https://live.staticflickr.com/65535/49710938851_4c66905ee1_o.jpg",
    "id_image": "Artistic_118674",
    "count_view": 0
  },
  {
    "link_thumb": "https://live.staticflickr.com/65535/49710913686_00798820b0_n.jpg",
    "id_album": "-1913845949",
    "description": "Animal_642281",
    "title": "Animal_642281",
    "link_img": "https://live.staticflickr.com/65535/49710913686_337be558e0_o.jpg",
    "id_image": "Animal_642281",
    "count_view": 0
  },
  {
    "link_thumb": "https://live.staticflickr.com/65535/49710502368_1b5edd8b8d_n.jpg",
    "id_album": "-1541846310",
    "description": "Castle_197957",
    "title": "Castle_197957",
    "link_img": "https://live.staticflickr.com/65535/49710502368_caa35bfaa3_o.jpg",
    "id_image": "Castle_197957",
    "count_view": 0
  },
  {
    "link_thumb": "https://live.staticflickr.com/65535/49711468532_62fd489388_n.jpg",
    "id_album": "-437872736",
    "description": "Creature_147410",
    "title": "Creature_147410",
    "link_img": "https://live.staticflickr.com/65535/49711468532_10c6c68042_o.jpg",
    "id_image": "Creature_147410",
    "count_view": 0
  },
  {
    "link_thumb": "https://live.staticflickr.com/65535/49712296856_44c31aa383_n.jpg",
    "id_album": "-709711865",
    "description": "Wolf_906880",
    "title": "Wolf_906880",
    "link_img": "https://live.staticflickr.com/65535/49712296856_4469194354_o.jpg",
    "id_image": "Wolf_906880",
    "count_view": 0
  },
  {
    "link_thumb": "https://live.staticflickr.com/65535/49711885718_bb3f8206f3_n.jpg",
    "id_album": "295204930",
    "description": "Women_739152",
    "title": "Women_739152",
    "link_img": "https://live.staticflickr.com/65535/49711885718_3c5963b6a9_o.jpg",
    "id_image": "Women_739152",
    "count_view": 0
  },
  {
    "link_thumb": "https://live.staticflickr.com/65535/49711389636_ecfff41f14_n.jpg",
    "id_album": "850176884",
    "description": "Dragon_229400",
    "title": "Dragon_229400",
    "link_img": "https://live.staticflickr.com/65535/49711389636_333f6a5398_o.jpg",
    "id_image": "Dragon_229400",
    "count_view": 0
  },
  {
    "link_thumb": "https://live.staticflickr.com/65535/49710520368_512bf8a472_n.jpg",
    "id_album": "-1541846310",
    "description": "Castle_722241",
    "title": "Castle_722241",
    "link_img": "https://live.staticflickr.com/65535/49710520368_9b3775faa1_o.jpg",
    "id_image": "Castle_722241",
    "count_view": 0
  },
  {
    "link_thumb": "https://live.staticflickr.com/65535/49712529176_467cc581f0_n.jpg",
    "id_album": "-867594484",
    "description": "Women_676341",
    "title": "Women_676341",
    "link_img": "https://live.staticflickr.com/65535/49712529176_c62da50b0c_o.jpg",
    "id_image": "Women_676341",
    "count_view": 0
  },
  {
    "link_thumb": "https://live.staticflickr.com/65535/49711607143_4824903a4e_n.jpg",
    "id_album": "-5356651",
    "description": "Sorcerer_278049",
    "title": "Sorcerer_278049",
    "link_img": "https://live.staticflickr.com/65535/49711607143_2f8790e5a0_o.jpg",
    "id_image": "Sorcerer_278049",
    "count_view": 0
  },
  {
    "link_thumb": "https://live.staticflickr.com/65535/49711868443_ede191b11b_n.jpg",
    "id_album": "295204930",
    "description": "Women_697100",
    "title": "Women_697100",
    "link_img": "https://live.staticflickr.com/65535/49711868443_18138234e0_o.jpg",
    "id_image": "Women_697100",
    "count_view": 0
  },
  {
    "link_thumb": "https://live.staticflickr.com/65535/49712510186_99eb0d47e3_n.jpg",
    "id_album": "-867594484",
    "description": "Women_567079",
    "title": "Women_567079",
    "link_img": "https://live.staticflickr.com/65535/49712510186_0c12ed693a_o.jpg",
    "id_image": "Women_567079",
    "count_view": 0
  },
  {
    "link_thumb": "https://live.staticflickr.com/65535/49711262136_eef19e5fab_n.jpg",
    "id_album": "-437872736",
    "description": "Creature_701281",
    "title": "Creature_701281",
    "link_img": "https://live.staticflickr.com/65535/49711262136_d2e15c7264_o.jpg",
    "id_image": "Creature_701281",
    "count_view": 0
  },
  {
    "link_thumb": "https://live.staticflickr.com/65535/49711440701_11f551a7dd_n.jpg",
    "id_album": "850176884",
    "description": "Dragon_394440",
    "title": "Dragon_394440",
    "link_img": "https://live.staticflickr.com/65535/49711440701_3a1b635a0c_o.jpg",
    "id_image": "Dragon_394440",
    "count_view": 0
  },
  {
    "link_thumb": "https://live.staticflickr.com/65535/49711695277_c220655db0_n.jpg",
    "id_album": "850176884",
    "description": "Dragon_146479",
    "title": "Dragon_146479",
    "link_img": "https://live.staticflickr.com/65535/49711695277_3723cb74a5_o.jpg",
    "id_image": "Dragon_146479",
    "count_view": 0
  },
  {
    "link_thumb": "https://live.staticflickr.com/65535/49712079907_80ab41cc69_n.jpg",
    "id_album": "-1933715543",
    "description": "Horse_261276",
    "title": "Horse_261276",
    "link_img": "https://live.staticflickr.com/65535/49712079907_ab0c69af71_o.jpg",
    "id_image": "Horse_261276",
    "count_view": 0
  },
  {
    "link_thumb": "https://live.staticflickr.com/65535/49711457202_fae837f714_n.jpg",
    "id_album": "-1964113117",
    "description": "City_94716",
    "title": "City_94716",
    "link_img": "https://live.staticflickr.com/65535/49711457202_c69907d280_o.jpg",
    "id_image": "City_94716",
    "count_view": 0
  },
  {
    "link_thumb": "https://live.staticflickr.com/65535/49710456733_887c9da5f8_n.jpg",
    "id_album": "1187037014",
    "description": "Battle_291932",
    "title": "Battle_291932",
    "link_img": "https://live.staticflickr.com/65535/49710456733_edf9f90b51_o.jpg",
    "id_image": "Battle_291932",
    "count_view": 0
  },
  {
    "link_thumb": "https://live.staticflickr.com/65535/49711013338_b98929b506_n.jpg",
    "id_album": "850176884",
    "description": "Dragon_878422",
    "title": "Dragon_878422",
    "link_img": "https://live.staticflickr.com/65535/49711013338_0546ffcdae_o.jpg",
    "id_image": "Dragon_878422",
    "count_view": 0
  },
  {
    "link_thumb": "https://live.staticflickr.com/65535/49712478196_58289c7812_n.jpg",
    "id_album": "1861288871",
    "description": "Women_821869",
    "title": "Women_821869",
    "link_img": "https://live.staticflickr.com/65535/49712478196_c196d83e2c_o.jpg",
    "id_image": "Women_821869",
    "count_view": 0
  },
  {
    "link_thumb": "https://live.staticflickr.com/65535/49711686126_57dc77cd44_n.jpg",
    "id_album": "-1972042284",
    "description": "Fairy_91788",
    "title": "Fairy_91788",
    "link_img": "https://live.staticflickr.com/65535/49711686126_3a8dc2e871_o.jpg",
    "id_image": "Fairy_91788",
    "count_view": 0
  },
  {
    "link_thumb": "https://live.staticflickr.com/65535/49711406097_9e6c682255_n.jpg",
    "id_album": "430704260",
    "description": "Child_772582",
    "title": "Child_772582",
    "link_img": "https://live.staticflickr.com/65535/49711406097_53aaa42d46_o.jpg",
    "id_image": "Child_772582",
    "count_view": 0
  },
  {
    "link_thumb": "https://live.staticflickr.com/65535/49710669088_ac5d7bc340_n.jpg",
    "id_album": "-437872736",
    "description": "Creature_338471",
    "title": "Creature_338471",
    "link_img": "https://live.staticflickr.com/65535/49710669088_c7b23e7e26_o.jpg",
    "id_image": "Creature_338471",
    "count_view": 0
  },
  {
    "link_thumb": "https://live.staticflickr.com/65535/49711406963_f8a2f48c17_n.jpg",
    "id_album": "-833110404",
    "description": "Landscape_419783",
    "title": "Landscape_419783",
    "link_img": "https://live.staticflickr.com/65535/49711406963_bfe561fed0_o.jpg",
    "id_image": "Landscape_419783",
    "count_view": 0
  },
  {
    "link_thumb": "https://live.staticflickr.com/65535/49711211752_d9daea80e5_n.jpg",
    "id_album": "-1000175186",
    "description": "AngelWarrior_830999",
    "title": "AngelWarrior_830999",
    "link_img": "https://live.staticflickr.com/65535/49711211752_8f8f6688bf_o.jpg",
    "id_image": "AngelWarrior_830999",
    "count_view": 0
  },
  {
    "link_thumb": "https://live.staticflickr.com/65535/49711990312_e5d145fe24_n.jpg",
    "id_album": "-1972042284",
    "description": "Fairy_457389",
    "title": "Fairy_457389",
    "link_img": "https://live.staticflickr.com/65535/49711990312_a9e8d9e01f_o.jpg",
    "id_image": "Fairy_457389",
    "count_view": 0
  },
  {
    "link_thumb": "https://live.staticflickr.com/65535/49711201377_088d92256d_n.jpg",
    "id_album": "-1000175186",
    "description": "AngelWarrior_264307",
    "title": "AngelWarrior_264307",
    "link_img": "https://live.staticflickr.com/65535/49711201377_6252fba222_o.jpg",
    "id_image": "AngelWarrior_264307",
    "count_view": 0
  },
  {
    "link_thumb": "https://live.staticflickr.com/65535/49710632333_693d77e4cf_n.jpg",
    "id_album": "-437872736",
    "description": "Creature_255546",
    "title": "Creature_255546",
    "link_img": "https://live.staticflickr.com/65535/49710632333_5fb5ecc689_o.jpg",
    "id_image": "Creature_255546",
    "count_view": 0
  },
  {
    "link_thumb": "https://live.staticflickr.com/65535/49711144671_8b7af10854_n.jpg",
    "id_album": "-437872736",
    "description": "Creature_151986",
    "title": "Creature_151986",
    "link_img": "https://live.staticflickr.com/65535/49711144671_e5e6cd4767_o.jpg",
    "id_image": "Creature_151986",
    "count_view": 0
  },
  {
    "link_thumb": "https://live.staticflickr.com/65535/49712335527_fbf39f8059_n.jpg",
    "id_album": "-222719689",
    "description": "Men_131649",
    "title": "Men_131649",
    "link_img": "https://live.staticflickr.com/65535/49712335527_25a9b780ac_o.jpg",
    "id_image": "Men_131649",
    "count_view": 0
  },
  {
    "link_thumb": "https://live.staticflickr.com/65535/49711641558_25773ea12a_n.jpg",
    "id_album": "431597977",
    "description": "Unicorn_232507",
    "title": "Unicorn_232507",
    "link_img": "https://live.staticflickr.com/65535/49711641558_468581d2bd_o.jpg",
    "id_image": "Unicorn_232507",
    "count_view": 0
  },
  {
    "link_thumb": "https://live.staticflickr.com/65535/49712162696_bae4e01016_n.jpg",
    "id_album": "405170427",
    "description": "Tiger_697731",
    "title": "Tiger_697731",
    "link_img": "https://live.staticflickr.com/65535/49712162696_1e3f24b2be_o.jpg",
    "id_image": "Tiger_697731",
    "count_view": 0
  },
  {
    "link_thumb": "https://live.staticflickr.com/65535/49711607561_e3738a6b51_n.jpg",
    "id_album": "134100487",
    "description": "Elf_297718",
    "title": "Elf_297718",
    "link_img": "https://live.staticflickr.com/65535/49711607561_75580379bf_o.jpg",
    "id_image": "Elf_297718",
    "count_view": 0
  },
  {
    "link_thumb": "https://live.staticflickr.com/65535/49711208352_3137637ff8_n.jpg",
    "id_album": "-1000175186",
    "description": "AngelWarrior_599892",
    "title": "AngelWarrior_599892",
    "link_img": "https://live.staticflickr.com/65535/49711208352_f676d6e77f_o.jpg",
    "id_image": "AngelWarrior_599892",
    "count_view": 0
  },
  {
    "link_thumb": "https://live.staticflickr.com/65535/49711559673_304fa52669_n.jpg",
    "id_album": "1223576123",
    "description": "Ruin_557317",
    "title": "Ruin_557317",
    "link_img": "https://live.staticflickr.com/65535/49711559673_24d13fc7b2_o.jpg",
    "id_image": "Ruin_557317",
    "count_view": 0
  },
  {
    "link_thumb": "https://live.staticflickr.com/65535/49711352887_c20849829b_n.jpg",
    "id_album": "406431601",
    "description": "Building_958297",
    "title": "Building_958297",
    "link_img": "https://live.staticflickr.com/65535/49711352887_23e65a7aa1_o.jpg",
    "id_image": "Building_958297",
    "count_view": 0
  },
  {
    "link_thumb": "https://live.staticflickr.com/65535/49712158497_8d68c2db22_n.jpg",
    "id_album": "1402713104",
    "description": "Landscape_864730",
    "title": "Landscape_864730",
    "link_img": "https://live.staticflickr.com/65535/49712158497_67df10fd17_o.jpg",
    "id_image": "Landscape_864730",
    "count_view": 0
  },
  {
    "link_thumb": "https://live.staticflickr.com/65535/49711305932_ca3b19ed60_n.jpg",
    "id_album": "1187037014",
    "description": "Battle_113122",
    "title": "Battle_113122",
    "link_img": "https://live.staticflickr.com/65535/49711305932_860daacc67_o.jpg",
    "id_image": "Battle_113122",
    "count_view": 0
  },
  {
    "link_thumb": "https://live.staticflickr.com/65535/49711290026_5a35df7b3f_n.jpg",
    "id_album": "-437872736",
    "description": "Creature_958719",
    "title": "Creature_958719",
    "link_img": "https://live.staticflickr.com/65535/49711290026_9121ab4614_o.jpg",
    "id_image": "Creature_958719",
    "count_view": 0
  },
  {
    "link_thumb": "https://live.staticflickr.com/65535/49712320642_ba5cb2e263_n.jpg",
    "id_album": "-1859457952",
    "description": "Love_948151",
    "title": "Love_948151",
    "link_img": "https://live.staticflickr.com/65535/49712320642_c27c915947_o.jpg",
    "id_image": "Love_948151",
    "count_view": 0
  },
  {
    "link_thumb": "https://live.staticflickr.com/65535/49711441357_0670b1d7d5_n.jpg",
    "id_album": "-1964113117",
    "description": "City_74557",
    "title": "City_74557",
    "link_img": "https://live.staticflickr.com/65535/49711441357_5e76744fb0_o.jpg",
    "id_image": "City_74557",
    "count_view": 0
  },
  {
    "link_thumb": "https://live.staticflickr.com/65535/49712844667_81711abc02_n.jpg",
    "id_album": "-867594484",
    "description": "Women_610257",
    "title": "Women_610257",
    "link_img": "https://live.staticflickr.com/65535/49712844667_9941f60558_o.jpg",
    "id_image": "Women_610257",
    "count_view": 0
  },
  {
    "link_thumb": "https://live.staticflickr.com/65535/49711383701_9a53c200b1_n.jpg",
    "id_album": "850176884",
    "description": "Dragon_199622",
    "title": "Dragon_199622",
    "link_img": "https://live.staticflickr.com/65535/49711383701_08baf44b20_o.jpg",
    "id_image": "Dragon_199622",
    "count_view": 0
  },
  {
    "link_thumb": "https://live.staticflickr.com/65535/49712458946_960ddc26e1_n.jpg",
    "id_album": "1861288871",
    "description": "Women_764812",
    "title": "Women_764812",
    "link_img": "https://live.staticflickr.com/65535/49712458946_56a22b65b7_o.jpg",
    "id_image": "Women_764812",
    "count_view": 0
  },
  {
    "link_thumb": "https://live.staticflickr.com/65535/49711345902_1845aab45a_n.jpg",
    "id_album": "406431601",
    "description": "Building_142633",
    "title": "Building_142633",
    "link_img": "https://live.staticflickr.com/65535/49711345902_4a248f8a79_o.jpg",
    "id_image": "Building_142633",
    "count_view": 0
  },
  {
    "link_thumb": "https://live.staticflickr.com/65535/49711227036_255333d818_n.jpg",
    "id_album": "-437872736",
    "description": "Creature_399473",
    "title": "Creature_399473",
    "link_img": "https://live.staticflickr.com/65535/49711227036_8254141d9c_o.jpg",
    "id_image": "Creature_399473",
    "count_view": 0
  },
  {
    "link_thumb": "https://live.staticflickr.com/65535/49711552447_ecc056b737_n.jpg",
    "id_album": "-437872736",
    "description": "Creature_397636",
    "title": "Creature_397636",
    "link_img": "https://live.staticflickr.com/65535/49711552447_c05a8672cb_o.jpg",
    "id_image": "Creature_397636",
    "count_view": 0
  },
  {
    "link_thumb": "https://live.staticflickr.com/65535/49710895641_0e29d08954_n.jpg",
    "id_album": "-1913845949",
    "description": "Animal_204895",
    "title": "Animal_204895",
    "link_img": "https://live.staticflickr.com/65535/49710895641_a041e2af56_o.jpg",
    "id_image": "Animal_204895",
    "count_view": 0
  },
  {
    "link_thumb": "https://live.staticflickr.com/65535/49712172473_23aac6912d_n.jpg",
    "id_album": "-1207759647",
    "description": "Zodiac_348748",
    "title": "Zodiac_348748",
    "link_img": "https://live.staticflickr.com/65535/49712172473_3b44ed9126_o.jpg",
    "id_image": "Zodiac_348748",
    "count_view": 0
  },
  {
    "link_thumb": "https://live.staticflickr.com/65535/49712310822_59ef5164dc_n.jpg",
    "id_album": "1006968559",
    "description": "LordoftheRings_242418",
    "title": "LordoftheRings_242418",
    "link_img": "https://live.staticflickr.com/65535/49712310822_03a36fbf39_o.jpg",
    "id_image": "LordoftheRings_242418",
    "count_view": 0
  },
  {
    "link_thumb": "https://live.staticflickr.com/65535/49710719003_ba0cb24bf0_n.jpg",
    "id_album": "-437872736",
    "description": "Creature_640719",
    "title": "Creature_640719",
    "link_img": "https://live.staticflickr.com/65535/49710719003_ac318cc2b1_o.jpg",
    "id_image": "Creature_640719",
    "count_view": 0
  },
  {
    "link_thumb": "https://live.staticflickr.com/65535/49711273751_215111502d_n.jpg",
    "id_album": "-437872736",
    "description": "Creature_920304",
    "title": "Creature_920304",
    "link_img": "https://live.staticflickr.com/65535/49711273751_25f8e9a63a_o.jpg",
    "id_image": "Creature_920304",
    "count_view": 0
  },
  {
    "link_thumb": "https://live.staticflickr.com/65535/49712651797_5b8c6f7958_n.jpg",
    "id_album": "-1126835654",
    "description": "Women_887517",
    "title": "Women_887517",
    "link_img": "https://live.staticflickr.com/65535/49712651797_d26c891649_o.jpg",
    "id_image": "Women_887517",
    "count_view": 0
  },
  {
    "link_thumb": "https://live.staticflickr.com/65535/49879542997_93c2b672b0_n.jpg",
    "id_album": "-1703946758",
    "description": "ANIME_PIC_f5dc6fa767a3e7970b447ca30ffbdac9",
    "title": "ANIME_PIC_f5dc6fa767a3e7970b447ca30ffbdac9",
    "link_img": "https://live.staticflickr.com/65535/49879542997_52ce0db497_o.jpg",
    "id_image": "ANIME_PIC_f5dc6fa767a3e7970b447ca30ffbdac9",
    "count_view": 0
  },
  {
    "link_thumb": "https://live.staticflickr.com/65535/49710688148_a38332187f_n.jpg",
    "id_album": "-437872736",
    "description": "Creature_385492",
    "title": "Creature_385492",
    "link_img": "https://live.staticflickr.com/65535/49710688148_436fb156d1_o.jpg",
    "id_image": "Creature_385492",
    "count_view": 0
  },
  {
    "link_thumb": "https://live.staticflickr.com/65535/49711523497_335b8e8cdd_n.jpg",
    "id_album": "-437872736",
    "description": "Creature_327049",
    "title": "Creature_327049",
    "link_img": "https://live.staticflickr.com/65535/49711523497_703e199040_o.jpg",
    "id_image": "Creature_327049",
    "count_view": 0
  },
  {
    "link_thumb": "https://live.staticflickr.com/65535/49712438116_5bc5462033_n.jpg",
    "id_album": "1861288871",
    "description": "Women_240978",
    "title": "Women_240978",
    "link_img": "https://live.staticflickr.com/65535/49712438116_255162fd2e_o.jpg",
    "id_image": "Women_240978",
    "count_view": 0
  },
  {
    "link_thumb": "https://live.staticflickr.com/65535/49711496413_9c0bfe4a7d_n.jpg",
    "id_album": "-14582214",
    "description": "Ocean_332397",
    "title": "Ocean_332397",
    "link_img": "https://live.staticflickr.com/65535/49711496413_750c615f16_o.jpg",
    "id_image": "Ocean_332397",
    "count_view": 0
  },
  {
    "link_thumb": "https://live.staticflickr.com/65535/49711996507_c67559164a_n.jpg",
    "id_album": "-1972042284",
    "description": "Fairy_681994",
    "title": "Fairy_681994",
    "link_img": "https://live.staticflickr.com/65535/49711996507_b19e7f7815_o.jpg",
    "id_image": "Fairy_681994",
    "count_view": 0
  },
  {
    "link_thumb": "https://live.staticflickr.com/65535/49710950141_1594c62d4e_n.jpg",
    "id_album": "523598895",
    "description": "Artistic_203806",
    "title": "Artistic_203806",
    "link_img": "https://live.staticflickr.com/65535/49710950141_8241045b4e_o.jpg",
    "id_image": "Artistic_203806",
    "count_view": 0
  },
  {
    "link_thumb": "https://live.staticflickr.com/65535/49711217341_512fa8f65a_n.jpg",
    "id_album": "-437872736",
    "description": "Creature_372365",
    "title": "Creature_372365",
    "link_img": "https://live.staticflickr.com/65535/49711217341_1c05b21c7c_o.jpg",
    "id_image": "Creature_372365",
    "count_view": 0
  },
  {
    "link_thumb": "https://live.staticflickr.com/65535/49711309897_c0e6ce698f_n.jpg",
    "id_album": "1187037014",
    "description": "Battle_235946",
    "title": "Battle_235946",
    "link_img": "https://live.staticflickr.com/65535/49711309897_cdf09e81f4_o.jpg",
    "id_image": "Battle_235946",
    "count_view": 0
  },
  {
    "link_thumb": "https://live.staticflickr.com/65535/49712468831_7137cdefd4_n.jpg",
    "id_album": "1861288871",
    "description": "Women_785147",
    "title": "Women_785147",
    "link_img": "https://live.staticflickr.com/65535/49712468831_1fc4cf2799_o.jpg",
    "id_image": "Women_785147",
    "count_view": 0
  },
  {
    "link_thumb": "https://live.staticflickr.com/65535/49711322277_01e77121a7_n.jpg",
    "id_album": "1187037014",
    "description": "Battle_395527",
    "title": "Battle_395527",
    "link_img": "https://live.staticflickr.com/65535/49711322277_6f58f6e676_o.jpg",
    "id_image": "Battle_395527",
    "count_view": 0
  },
  {
    "link_thumb": "https://live.staticflickr.com/65535/49710988188_9696115394_n.jpg",
    "id_album": "850176884",
    "description": "Dragon_78311",
    "title": "Dragon_78311",
    "link_img": "https://live.staticflickr.com/65535/49710988188_80e59688e6_o.jpg",
    "id_image": "Dragon_78311",
    "count_view": 0
  },
  {
    "link_thumb": "https://live.staticflickr.com/65535/49711880293_a1024e3164_n.jpg",
    "id_album": "295204930",
    "description": "Women_725329",
    "title": "Women_725329",
    "link_img": "https://live.staticflickr.com/65535/49711880293_103d3a2c8e_o.jpg",
    "id_image": "Women_725329",
    "count_view": 0
  },
  {
    "link_thumb": "https://live.staticflickr.com/65535/49712531832_2c2784e531_n.jpg",
    "id_album": "-1261420436",
    "description": "Warrior_521902",
    "title": "Warrior_521902",
    "link_img": "https://live.staticflickr.com/65535/49712531832_bda4507214_o.jpg",
    "id_image": "Warrior_521902",
    "count_view": 0
  },
  {
    "link_thumb": "https://live.staticflickr.com/65535/49711361497_35b6fd00ca_n.jpg",
    "id_album": "-1541846310",
    "description": "Castle_211046",
    "title": "Castle_211046",
    "link_img": "https://live.staticflickr.com/65535/49711361497_b909cf1e40_o.jpg",
    "id_image": "Castle_211046",
    "count_view": 0
  },
  {
    "link_thumb": "https://live.staticflickr.com/65535/49711067796_45cc84d903_n.jpg",
    "id_album": "-1541846310",
    "description": "Castle_926964",
    "title": "Castle_926964",
    "link_img": "https://live.staticflickr.com/65535/49711067796_d227c8c831_o.jpg",
    "id_image": "Castle_926964",
    "count_view": 0
  },
  {
    "link_thumb": "https://live.staticflickr.com/65535/49711954263_783b5f285f_n.jpg",
    "id_album": "-867594484",
    "description": "Women_509503",
    "title": "Women_509503",
    "link_img": "https://live.staticflickr.com/65535/49711954263_5be70195c5_o.jpg",
    "id_image": "Women_509503",
    "count_view": 0
  },
  {
    "link_thumb": "https://live.staticflickr.com/65535/49712829977_0ce492d14a_n.jpg",
    "id_album": "-867594484",
    "description": "Women_559918",
    "title": "Women_559918",
    "link_img": "https://live.staticflickr.com/65535/49712829977_b85eb4862a_o.jpg",
    "id_image": "Women_559918",
    "count_view": 0
  },
  {
    "link_thumb": "https://live.staticflickr.com/65535/49711445012_d7b5e1133d_n.jpg",
    "id_album": "-1964113117",
    "description": "City_86109",
    "title": "City_86109",
    "link_img": "https://live.staticflickr.com/65535/49711445012_5d7833cfdb_o.jpg",
    "id_image": "City_86109",
    "count_view": 0
  },
  {
    "link_thumb": "https://live.staticflickr.com/65535/49712237231_6867182da7_n.jpg",
    "id_album": "-1261420436",
    "description": "Warrior_926842",
    "title": "Warrior_926842",
    "link_img": "https://live.staticflickr.com/65535/49712237231_3ea3cf2efd_o.jpg",
    "id_image": "Warrior_926842",
    "count_view": 0
  },
  {
    "link_thumb": "https://live.staticflickr.com/65535/49711166331_ebceb57645_n.jpg",
    "id_album": "-437872736",
    "description": "Creature_246194",
    "title": "Creature_246194",
    "link_img": "https://live.staticflickr.com/65535/49711166331_0391b84521_o.jpg",
    "id_image": "Creature_246194",
    "count_view": 0
  },
  {
    "link_thumb": "https://live.staticflickr.com/65535/49711305237_d8737f318c_n.jpg",
    "id_album": "523598895",
    "description": "Artistic_958691",
    "title": "Artistic_958691",
    "link_img": "https://live.staticflickr.com/65535/49711305237_8680777e6a_o.jpg",
    "id_image": "Artistic_958691",
    "count_view": 0
  },
  {
    "link_thumb": "https://live.staticflickr.com/65535/49710792098_da2e7c061c_n.jpg",
    "id_album": "1903411565",
    "description": "Deer_829168",
    "title": "Deer_829168",
    "link_img": "https://live.staticflickr.com/65535/49710792098_998b0f6704_o.jpg",
    "id_image": "Deer_829168",
    "count_view": 0
  },
  {
    "link_thumb": "https://live.staticflickr.com/65535/49711907727_ea15e2d093_n.jpg",
    "id_album": "850176884",
    "description": "Dragon_975699",
    "title": "Dragon_975699",
    "link_img": "https://live.staticflickr.com/65535/49711907727_8d85f12231_o.jpg",
    "id_image": "Dragon_975699",
    "count_view": 0
  },
  {
    "link_thumb": "https://live.staticflickr.com/65535/49710704983_8f67b75701_n.jpg",
    "id_album": "-437872736",
    "description": "Creature_511829",
    "title": "Creature_511829",
    "link_img": "https://live.staticflickr.com/65535/49710704983_f4dcdb832d_o.jpg",
    "id_image": "Creature_511829",
    "count_view": 0
  },
  {
    "link_thumb": "https://live.staticflickr.com/65535/49710443043_4ed20899df_n.jpg",
    "id_album": "523598895",
    "description": "Artistic_679752",
    "title": "Artistic_679752",
    "link_img": "https://live.staticflickr.com/65535/49710443043_ae9c597ede_o.jpg",
    "id_image": "Artistic_679752",
    "count_view": 0
  },
  {
    "link_thumb": "https://live.staticflickr.com/65535/49711693912_fa9387d5be_n.jpg",
    "id_album": "850176884",
    "description": "Dragon_145084",
    "title": "Dragon_145084",
    "link_img": "https://live.staticflickr.com/65535/49711693912_19365ff5bb_o.jpg",
    "id_image": "Dragon_145084",
    "count_view": 0
  },
  {
    "link_thumb": "https://live.staticflickr.com/65535/49711612243_e64444e1c2_n.jpg",
    "id_album": "1240974613",
    "description": "Sorceress_982571",
    "title": "Sorceress_982571",
    "link_img": "https://live.staticflickr.com/65535/49711612243_2fa0947cb5_o.jpg",
    "id_image": "Sorceress_982571",
    "count_view": 0
  },
  {
    "link_thumb": "https://live.staticflickr.com/65535/49710366803_ef439f9d9c_n.jpg",
    "id_album": "-1913845949",
    "description": "Animal_374608",
    "title": "Animal_374608",
    "link_img": "https://live.staticflickr.com/65535/49710366803_50f7f26e8b_o.jpg",
    "id_image": "Animal_374608",
    "count_view": 0
  },
  {
    "link_thumb": "https://live.staticflickr.com/65535/49712489372_0a0c06586d_n.jpg",
    "id_album": "405170427",
    "description": "Tiger_891860",
    "title": "Tiger_891860",
    "link_img": "https://live.staticflickr.com/65535/49712489372_fa5f4fb0bc_o.jpg",
    "id_image": "Tiger_891860",
    "count_view": 0
  },
  {
    "link_thumb": "https://live.staticflickr.com/65535/49710356188_7b5bcb621c_n.jpg",
    "id_album": "-1000175186",
    "description": "AngelWarrior_926418",
    "title": "AngelWarrior_926418",
    "link_img": "https://live.staticflickr.com/65535/49710356188_2ce5fbc9f9_o.jpg",
    "id_image": "AngelWarrior_926418",
    "count_view": 0
  },
  {
    "link_thumb": "https://live.staticflickr.com/65535/49711204278_a7762d50d6_n.jpg",
    "id_album": "402434752",
    "description": "Giant_952021",
    "title": "Giant_952021",
    "link_img": "https://live.staticflickr.com/65535/49711204278_01568e330f_o.jpg",
    "id_image": "Giant_952021",
    "count_view": 0
  },
  {
    "link_thumb": "https://live.staticflickr.com/65535/49711662172_684c832369_n.jpg",
    "id_album": "7198985",
    "description": "Demon_588967",
    "title": "Demon_588967",
    "link_img": "https://live.staticflickr.com/65535/49711662172_e5bb913eab_o.jpg",
    "id_image": "Demon_588967",
    "count_view": 0
  },
  {
    "link_thumb": "https://live.staticflickr.com/65535/49710921031_7fb73f0721_n.jpg",
    "id_album": "-1913845949",
    "description": "Animal_910935",
    "title": "Animal_910935",
    "link_img": "https://live.staticflickr.com/65535/49710921031_2cf188fd6a_o.jpg",
    "id_image": "Animal_910935",
    "count_view": 0
  },
  {
    "link_thumb": "https://live.staticflickr.com/65535/49711503468_c3b7b59c97_n.jpg",
    "id_album": "1892085513",
    "description": "Oriental_274506",
    "title": "Oriental_274506",
    "link_img": "https://live.staticflickr.com/65535/49711503468_81d42689c4_o.jpg",
    "id_image": "Oriental_274506",
    "count_view": 0
  },
  {
    "link_thumb": "https://live.staticflickr.com/65535/49710953013_7ef20ede94_n.jpg",
    "id_album": "850176884",
    "description": "Dragon_591163",
    "title": "Dragon_591163",
    "link_img": "https://live.staticflickr.com/65535/49710953013_f0b1044385_o.jpg",
    "id_image": "Dragon_591163",
    "count_view": 0
  },
  {
    "link_thumb": "https://live.staticflickr.com/65535/49712393001_06578d6887_n.jpg",
    "id_album": "295204930",
    "description": "Women_400450",
    "title": "Women_400450",
    "link_img": "https://live.staticflickr.com/65535/49712393001_c6c7c1941e_o.jpg",
    "id_image": "Women_400450",
    "count_view": 0
  },
  {
    "link_thumb": "https://live.staticflickr.com/65535/49712341012_db4dbd528b_n.jpg",
    "id_album": "-222719689",
    "description": "Men_592461",
    "title": "Men_592461",
    "link_img": "https://live.staticflickr.com/65535/49712341012_a3da11001e_o.jpg",
    "id_image": "Men_592461",
    "count_view": 0
  },
  {
    "link_thumb": "https://live.staticflickr.com/65535/49710659243_21b5004056_n.jpg",
    "id_album": "-437872736",
    "description": "Creature_323781",
    "title": "Creature_323781",
    "link_img": "https://live.staticflickr.com/65535/49710659243_601ef6d66e_o.jpg",
    "id_image": "Creature_323781",
    "count_view": 0
  },
  {
    "link_thumb": "https://live.staticflickr.com/65535/49713020152_33424cc83d_n.jpg",
    "id_album": "-1675918237",
    "description": "WomenWarrior_893473",
    "title": "WomenWarrior_893473",
    "link_img": "https://live.staticflickr.com/65535/49713020152_1bb665a56e_o.jpg",
    "id_image": "WomenWarrior_893473",
    "count_view": 0
  },
  {
    "link_thumb": "https://live.staticflickr.com/65535/49710918471_214b558d3c_n.jpg",
    "id_album": "-1913845949",
    "description": "Animal_858509",
    "title": "Animal_858509",
    "link_img": "https://live.staticflickr.com/65535/49710918471_f196754ca0_o.jpg",
    "id_image": "Animal_858509",
    "count_view": 0
  },
  {
    "link_thumb": "https://live.staticflickr.com/65535/49711522051_d4e7e27b7f_n.jpg",
    "id_album": "850176884",
    "description": "Dragon_76707",
    "title": "Dragon_76707",
    "link_img": "https://live.staticflickr.com/65535/49711522051_4c49356414_o.jpg",
    "id_image": "Dragon_76707",
    "count_view": 0
  },
  {
    "link_thumb": "https://live.staticflickr.com/65535/49712457616_bf9a1fddcf_n.jpg",
    "id_album": "1861288871",
    "description": "Women_763221",
    "title": "Women_763221",
    "link_img": "https://live.staticflickr.com/65535/49712457616_ac734d03ba_o.jpg",
    "id_image": "Women_763221",
    "count_view": 0
  },
  {
    "link_thumb": "https://live.staticflickr.com/65535/49711779792_8bbaa8e664_n.jpg",
    "id_album": "850176884",
    "description": "Dragon_480320",
    "title": "Dragon_480320",
    "link_img": "https://live.staticflickr.com/65535/49711779792_8048827b6e_o.jpg",
    "id_image": "Dragon_480320",
    "count_view": 0
  },
  {
    "link_thumb": "https://live.staticflickr.com/65535/49711654313_fcf64394d7_n.jpg",
    "id_album": "43335239",
    "description": "Vampire_702019",
    "title": "Vampire_702019",
    "link_img": "https://live.staticflickr.com/65535/49711654313_d4b2b4f469_o.jpg",
    "id_image": "Vampire_702019",
    "count_view": 0
  },
  {
    "link_thumb": "https://live.staticflickr.com/65535/49712025987_5cf372d0c8_n.jpg",
    "id_album": "-1083189875",
    "description": "Forest_655596",
    "title": "Forest_655596",
    "link_img": "https://live.staticflickr.com/65535/49712025987_ca7b07b9ac_o.jpg",
    "id_image": "Forest_655596",
    "count_view": 0
  },
  {
    "link_thumb": "https://live.staticflickr.com/65535/49711088806_ff0f1eb855_n.jpg",
    "id_album": "-1964113117",
    "description": "City_154349",
    "title": "City_154349",
    "link_img": "https://live.staticflickr.com/65535/49711088806_7ea5e6faf0_o.jpg",
    "id_image": "City_154349",
    "count_view": 0
  },
  {
    "link_thumb": "https://live.staticflickr.com/65535/49711975066_57cfc13552_n.jpg",
    "id_album": "-1284959130",
    "description": "LegendOfTheFiveRings_152763",
    "title": "LegendOfTheFiveRings_152763",
    "link_img": "https://live.staticflickr.com/65535/49711975066_e86565325f_o.jpg",
    "id_image": "LegendOfTheFiveRings_152763",
    "count_view": 0
  },
  {
    "link_thumb": "https://live.staticflickr.com/65535/49710864886_8f15898837_n.jpg",
    "id_album": "-2109465612",
    "description": "Adventure_251243",
    "title": "Adventure_251243",
    "link_img": "https://live.staticflickr.com/65535/49710864886_468b6d1ebb_o.jpg",
    "id_image": "Adventure_251243",
    "count_view": 0
  },
  {
    "link_thumb": "https://live.staticflickr.com/65535/49711076903_105fb52ab7_n.jpg",
    "id_album": "134100487",
    "description": "Elf_418183",
    "title": "Elf_418183",
    "link_img": "https://live.staticflickr.com/65535/49711076903_e8541abf08_o.jpg",
    "id_image": "Elf_418183",
    "count_view": 0
  },
  {
    "link_thumb": "https://live.staticflickr.com/65535/49710955726_167c324c0d_n.jpg",
    "id_album": "523598895",
    "description": "Artistic_235391",
    "title": "Artistic_235391",
    "link_img": "https://live.staticflickr.com/65535/49710955726_efe7ff9612_o.jpg",
    "id_image": "Artistic_235391",
    "count_view": 0
  },
  {
    "link_thumb": "https://live.staticflickr.com/65535/49711709307_33ca61945d_n.jpg",
    "id_album": "850176884",
    "description": "Dragon_214567",
    "title": "Dragon_214567",
    "link_img": "https://live.staticflickr.com/65535/49711709307_74af04d962_o.jpg",
    "id_image": "Dragon_214567",
    "count_view": 0
  },
  {
    "link_thumb": "https://live.staticflickr.com/65535/49711748648_b4051ea906_n.jpg",
    "id_album": "-709711865",
    "description": "Wolf_652768",
    "title": "Wolf_652768",
    "link_img": "https://live.staticflickr.com/65535/49711748648_09c6c07f2f_o.jpg",
    "id_image": "Wolf_652768",
    "count_view": 0
  },
  {
    "link_thumb": "https://live.staticflickr.com/65535/49711305636_28735dc0da_n.jpg",
    "id_album": "-437872736",
    "description": "Creature_958984",
    "title": "Creature_958984",
    "link_img": "https://live.staticflickr.com/65535/49711305636_94fe88a878_o.jpg",
    "id_image": "Creature_958984",
    "count_view": 0
  },
  {
    "link_thumb": "https://live.staticflickr.com/65535/49711344272_1b4995dacd_n.jpg",
    "id_album": "-1846011410",
    "description": "Bird_964218",
    "title": "Bird_964218",
    "link_img": "https://live.staticflickr.com/65535/49711344272_504289f962_o.jpg",
    "id_image": "Bird_964218",
    "count_view": 0
  },
  {
    "link_thumb": "https://live.staticflickr.com/65535/49711474752_214e7f23ef_n.jpg",
    "id_album": "-437872736",
    "description": "Creature_162769",
    "title": "Creature_162769",
    "link_img": "https://live.staticflickr.com/65535/49711474752_fedb0354df_o.jpg",
    "id_image": "Creature_162769",
    "count_view": 0
  },
  {
    "link_thumb": "https://live.staticflickr.com/65535/49712185086_584acfe9ac_n.jpg",
    "id_album": "431597977",
    "description": "Unicorn_863675",
    "title": "Unicorn_863675",
    "link_img": "https://live.staticflickr.com/65535/49712185086_a546853e87_o.jpg",
    "id_image": "Unicorn_863675",
    "count_view": 0
  },
  {
    "link_thumb": "https://live.staticflickr.com/65535/49711882637_ff4b577779_n.jpg",
    "id_album": "850176884",
    "description": "Dragon_910954",
    "title": "Dragon_910954",
    "link_img": "https://live.staticflickr.com/65535/49711882637_ab701ce05d_o.jpg",
    "id_image": "Dragon_910954",
    "count_view": 0
  },
  {
    "link_thumb": "https://live.staticflickr.com/65535/49711029938_242492dd10_n.jpg",
    "id_album": "850176884",
    "description": "Dragon_917733",
    "title": "Dragon_917733",
    "link_img": "https://live.staticflickr.com/65535/49711029938_f825d6af2a_o.jpg",
    "id_image": "Dragon_917733",
    "count_view": 0
  },
  {
    "link_thumb": "https://live.staticflickr.com/65535/49711388147_bcab2ffc35_n.jpg",
    "id_album": "-1541846310",
    "description": "Castle_883161",
    "title": "Castle_883161",
    "link_img": "https://live.staticflickr.com/65535/49711388147_ca6bd4cd6e_o.jpg",
    "id_image": "Castle_883161",
    "count_view": 0
  },
  {
    "link_thumb": "https://live.staticflickr.com/65535/49711837508_49758beef7_n.jpg",
    "id_album": "295204930",
    "description": "Women_291759",
    "title": "Women_291759",
    "link_img": "https://live.staticflickr.com/65535/49711837508_415d97ee10_o.jpg",
    "id_image": "Women_291759",
    "count_view": 0
  },
  {
    "link_thumb": "https://live.staticflickr.com/65535/49711507571_7c3dfec25c_n.jpg",
    "id_album": "850176884",
    "description": "Dragon_692327",
    "title": "Dragon_692327",
    "link_img": "https://live.staticflickr.com/65535/49711507571_22c258f563_o.jpg",
    "id_image": "Dragon_692327",
    "count_view": 0
  },
  {
    "link_thumb": "https://live.staticflickr.com/65535/49711072036_5788d7ebe2_n.jpg",
    "id_album": "-1741487325",
    "description": "Cat_777226",
    "title": "Cat_777226",
    "link_img": "https://live.staticflickr.com/65535/49711072036_e1919d4ec7_o.jpg",
    "id_image": "Cat_777226",
    "count_view": 0
  },
  {
    "link_thumb": "https://live.staticflickr.com/65535/49710769858_24e803d8f3_n.jpg",
    "id_album": "-437872736",
    "description": "Creature_958990",
    "title": "Creature_958990",
    "link_img": "https://live.staticflickr.com/65535/49710769858_7ef7e42ba5_o.jpg",
    "id_image": "Creature_958990",
    "count_view": 0
  },
  {
    "link_thumb": "https://live.staticflickr.com/65535/49711541262_2442164646_n.jpg",
    "id_album": "-437872736",
    "description": "Creature_367063",
    "title": "Creature_367063",
    "link_img": "https://live.staticflickr.com/65535/49711541262_8838f985a6_o.jpg",
    "id_image": "Creature_367063",
    "count_view": 0
  },
  {
    "link_thumb": "https://live.staticflickr.com/65535/49710337593_ce0bd56012_n.jpg",
    "id_album": "-956471126",
    "description": "AliceInWonderland_217199",
    "title": "AliceInWonderland_217199",
    "link_img": "https://live.staticflickr.com/65535/49710337593_b7f515d0bc_o.jpg",
    "id_image": "AliceInWonderland_217199",
    "count_view": 0
  },
  {
    "link_thumb": "https://live.staticflickr.com/65535/49711642481_0d23dd84c6_n.jpg",
    "id_album": "134100487",
    "description": "Elf_969753",
    "title": "Elf_969753",
    "link_img": "https://live.staticflickr.com/65535/49711642481_2bd03d8790_o.jpg",
    "id_image": "Elf_969753",
    "count_view": 0
  },
  {
    "link_thumb": "https://live.staticflickr.com/65535/49711930522_21192ef49a_n.jpg",
    "id_album": "134100487",
    "description": "Elf_288212",
    "title": "Elf_288212",
    "link_img": "https://live.staticflickr.com/65535/49711930522_d3ba41a64e_o.jpg",
    "id_image": "Elf_288212",
    "count_view": 0
  },
  {
    "link_thumb": "https://live.staticflickr.com/65535/49712038882_d601d6c523_n.jpg",
    "id_album": "-1083189875",
    "description": "Forest_864944",
    "title": "Forest_864944",
    "link_img": "https://live.staticflickr.com/65535/49712038882_f8fc2a1211_o.jpg",
    "id_image": "Forest_864944",
    "count_view": 0
  },
  {
    "link_thumb": "https://live.staticflickr.com/65535/49712184586_ecc3971227_n.jpg",
    "id_album": "431597977",
    "description": "Unicorn_792841",
    "title": "Unicorn_792841",
    "link_img": "https://live.staticflickr.com/65535/49712184586_856644a990_o.jpg",
    "id_image": "Unicorn_792841",
    "count_view": 0
  },
  {
    "link_thumb": "https://live.staticflickr.com/65535/49711582091_7448f28ec4_n.jpg",
    "id_album": "850176884",
    "description": "Dragon_969393",
    "title": "Dragon_969393",
    "link_img": "https://live.staticflickr.com/65535/49711582091_642f772b50_o.jpg",
    "id_image": "Dragon_969393",
    "count_view": 0
  },
  {
    "link_thumb": "https://live.staticflickr.com/65535/49711049773_92222aebd8_n.jpg",
    "id_album": "850176884",
    "description": "Dragon_973310",
    "title": "Dragon_973310",
    "link_img": "https://live.staticflickr.com/65535/49711049773_2b9e9c577c_o.jpg",
    "id_image": "Dragon_973310",
    "count_view": 0
  },
  {
    "link_thumb": "https://live.staticflickr.com/65535/49711659258_6c116ececf_n.jpg",
    "id_album": "1215289234",
    "description": "WARIOR2610191651254",
    "title": "WARIOR2610191651254",
    "link_img": "https://live.staticflickr.com/65535/49711659258_5e2d42b517_o.jpg",
    "id_image": "WARIOR2610191651254",
    "count_view": 0
  },
  {
    "link_thumb": "https://live.staticflickr.com/65535/49712292862_0557fa1677_n.jpg",
    "id_album": "-833110404",
    "description": "Landscape_557045",
    "title": "Landscape_557045",
    "link_img": "https://live.staticflickr.com/65535/49712292862_fc9a35f319_o.jpg",
    "id_image": "Landscape_557045",
    "count_view": 0
  },
  {
    "link_thumb": "https://live.staticflickr.com/65535/49711311327_edc251e136_n.jpg",
    "id_album": "1187037014",
    "description": "Battle_242330",
    "title": "Battle_242330",
    "link_img": "https://live.staticflickr.com/65535/49711311327_90bddf4acd_o.jpg",
    "id_image": "Battle_242330",
    "count_view": 0
  },
  {
    "link_thumb": "https://live.staticflickr.com/65535/49712118212_bbafc709e5_n.jpg",
    "id_album": "1402713104",
    "description": "Landscape_655889",
    "title": "Landscape_655889",
    "link_img": "https://live.staticflickr.com/65535/49712118212_704fe8f228_o.jpg",
    "id_image": "Landscape_655889",
    "count_view": 0
  },
  {
    "link_thumb": "https://live.staticflickr.com/65535/49711271463_c0f991cc03_n.jpg",
    "id_album": "1402713104",
    "description": "Landscape_707133",
    "title": "Landscape_707133",
    "link_img": "https://live.staticflickr.com/65535/49711271463_3396a4c501_o.jpg",
    "id_image": "Landscape_707133",
    "count_view": 0
  },
  {
    "link_thumb": "https://live.staticflickr.com/65535/49711943378_d26ed45da7_n.jpg",
    "id_album": "1861288871",
    "description": "Women_817412",
    "title": "Women_817412",
    "link_img": "https://live.staticflickr.com/65535/49711943378_b32f21637d_o.jpg",
    "id_image": "Women_817412",
    "count_view": 0
  },
  {
    "link_thumb": "https://live.staticflickr.com/65535/49711465523_e9c61ac122_n.jpg",
    "id_album": "-1613076477",
    "description": "Magic_350153",
    "title": "Magic_350153",
    "link_img": "https://live.staticflickr.com/65535/49711465523_1628d36439_o.jpg",
    "id_image": "Magic_350153",
    "count_view": 0
  },
  {
    "link_thumb": "https://live.staticflickr.com/65535/49711875422_929c89a89c_n.jpg",
    "id_album": "850176884",
    "description": "Dragon_898269",
    "title": "Dragon_898269",
    "link_img": "https://live.staticflickr.com/65535/49711875422_62aacf1de3_o.jpg",
    "id_image": "Dragon_898269",
    "count_view": 0
  },
  {
    "link_thumb": "https://live.staticflickr.com/65535/49710944813_503ac63f70_n.jpg",
    "id_album": "850176884",
    "description": "Dragon_557556",
    "title": "Dragon_557556",
    "link_img": "https://live.staticflickr.com/65535/49710944813_b2def05631_o.jpg",
    "id_image": "Dragon_557556",
    "count_view": 0
  },
  {
    "link_thumb": "https://live.staticflickr.com/65535/49711585523_4a053d9277_n.jpg",
    "id_album": "407101116",
    "description": "SeaMonster_343572",
    "title": "SeaMonster_343572",
    "link_img": "https://live.staticflickr.com/65535/49711585523_98d2f28f6c_o.jpg",
    "id_image": "SeaMonster_343572",
    "count_view": 0
  },
  {
    "link_thumb": "https://live.staticflickr.com/65535/49711774638_f2693ca091_n.jpg",
    "id_album": "-1126835654",
    "description": "Women_851481",
    "title": "Women_851481",
    "link_img": "https://live.staticflickr.com/65535/49711774638_75254a043f_o.jpg",
    "id_image": "Women_851481",
    "count_view": 0
  },
  {
    "link_thumb": "https://live.staticflickr.com/65535/49710348548_f5229c8b9d_n.jpg",
    "id_album": "-1000175186",
    "description": "AngelWarrior_534450",
    "title": "AngelWarrior_534450",
    "link_img": "https://live.staticflickr.com/65535/49710348548_a2b2c3a8c1_o.jpg",
    "id_image": "AngelWarrior_534450",
    "count_view": 0
  },
  {
    "link_thumb": "https://live.staticflickr.com/65535/49711261308_e14e8e6286_n.jpg",
    "id_album": "1402713104",
    "description": "Landscape_659624",
    "title": "Landscape_659624",
    "link_img": "https://live.staticflickr.com/65535/49711261308_8a2b0d1e73_o.jpg",
    "id_image": "Landscape_659624",
    "count_view": 0
  },
  {
    "link_thumb": "https://live.staticflickr.com/65535/49712845812_7721c07f91_n.jpg",
    "id_album": "-867594484",
    "description": "Women_618462",
    "title": "Women_618462",
    "link_img": "https://live.staticflickr.com/65535/49712845812_a66d2f505f_o.jpg",
    "id_image": "Women_618462",
    "count_view": 0
  },
  {
    "link_thumb": "https://live.staticflickr.com/65535/49712542957_aeb953333b_n.jpg",
    "id_album": "-1261420436",
    "description": "Warrior_711425",
    "title": "Warrior_711425",
    "link_img": "https://live.staticflickr.com/65535/49712542957_b41fbf720e_o.jpg",
    "id_image": "Warrior_711425",
    "count_view": 0
  },
  {
    "link_thumb": "https://live.staticflickr.com/65535/49711471012_fd1e1ba3e4_n.jpg",
    "id_album": "-437872736",
    "description": "Creature_154771",
    "title": "Creature_154771",
    "link_img": "https://live.staticflickr.com/65535/49711471012_9f69eb27d8_o.jpg",
    "id_image": "Creature_154771",
    "count_view": 0
  },
  {
    "link_thumb": "https://live.staticflickr.com/65535/49712139241_022531657c_n.jpg",
    "id_album": "-395228614",
    "description": "Ship_912070",
    "title": "Ship_912070",
    "link_img": "https://live.staticflickr.com/65535/49712139241_db872deef6_o.jpg",
    "id_image": "Ship_912070",
    "count_view": 0
  },
  {
    "link_thumb": "https://live.staticflickr.com/65535/49712044821_a9b270c904_n.jpg",
    "id_album": "1892085513",
    "description": "Oriental_329384",
    "title": "Oriental_329384",
    "link_img": "https://live.staticflickr.com/65535/49712044821_a44e5398d9_o.jpg",
    "id_image": "Oriental_329384",
    "count_view": 0
  },
  {
    "link_thumb": "https://live.staticflickr.com/65535/49711750898_abb914b169_n.jpg",
    "id_album": "-709711865",
    "description": "Wolf_675197",
    "title": "Wolf_675197",
    "link_img": "https://live.staticflickr.com/65535/49711750898_062c6fcb52_o.jpg",
    "id_image": "Wolf_675197",
    "count_view": 0
  },
  {
    "link_thumb": "https://live.staticflickr.com/65535/49712086396_88e41f1549_n.jpg",
    "id_album": "1587588550",
    "description": "Place_260639",
    "title": "Place_260639",
    "link_img": "https://live.staticflickr.com/65535/49712086396_964345a8e3_o.jpg",
    "id_image": "Place_260639",
    "count_view": 0
  },
  {
    "link_thumb": "https://live.staticflickr.com/65535/49710921678_983205bace_n.jpg",
    "id_album": "850176884",
    "description": "Dragon_47695",
    "title": "Dragon_47695",
    "link_img": "https://live.staticflickr.com/65535/49710921678_0c9f261e40_o.jpg",
    "id_image": "Dragon_47695",
    "count_view": 0
  },
  {
    "link_thumb": "https://live.staticflickr.com/65535/49711465966_10a328d90b_n.jpg",
    "id_album": "850176884",
    "description": "Dragon_510152",
    "title": "Dragon_510152",
    "link_img": "https://live.staticflickr.com/65535/49711465966_315d3af664_o.jpg",
    "id_image": "Dragon_510152",
    "count_view": 0
  },
  {
    "link_thumb": "https://live.staticflickr.com/65535/49711110718_d79d989b16_n.jpg",
    "id_album": "-1972042284",
    "description": "Fairy_127980",
    "title": "Fairy_127980",
    "link_img": "https://live.staticflickr.com/65535/49711110718_64e235f5c3_o.jpg",
    "id_image": "Fairy_127980",
    "count_view": 0
  },
  {
    "link_thumb": "https://live.staticflickr.com/65535/49711322408_f66d842a82_n.jpg",
    "id_album": "1402713104",
    "description": "Landscape_917338",
    "title": "Landscape_917338",
    "link_img": "https://live.staticflickr.com/65535/49711322408_39cc0afe5a_o.jpg",
    "id_image": "Landscape_917338",
    "count_view": 0
  },
  {
    "link_thumb": "https://live.staticflickr.com/65535/49712238481_1bf304b95a_n.jpg",
    "id_album": "-1261420436",
    "description": "Warrior_940180",
    "title": "Warrior_940180",
    "link_img": "https://live.staticflickr.com/65535/49712238481_f580e0cbf0_o.jpg",
    "id_image": "Warrior_940180",
    "count_view": 0
  },
  {
    "link_thumb": "https://live.staticflickr.com/65535/49710680168_ed07efce60_n.jpg",
    "id_album": "-437872736",
    "description": "Creature_367076",
    "title": "Creature_367076",
    "link_img": "https://live.staticflickr.com/65535/49710680168_275b7c4657_o.jpg",
    "id_image": "Creature_367076",
    "count_view": 0
  },
  {
    "link_thumb": "https://live.staticflickr.com/65535/49712038422_113324a5a1_n.jpg",
    "id_album": "-1083189875",
    "description": "Forest_864941",
    "title": "Forest_864941",
    "link_img": "https://live.staticflickr.com/65535/49712038422_4c3af919dd_o.jpg",
    "id_image": "Forest_864941",
    "count_view": 0
  },
  {
    "link_thumb": "https://live.staticflickr.com/65535/49711973421_754d4d3ac6_n.jpg",
    "id_album": "-833110404",
    "description": "Landscape_612937",
    "title": "Landscape_612937",
    "link_img": "https://live.staticflickr.com/65535/49711973421_ba926e8389_o.jpg",
    "id_image": "Landscape_612937",
    "count_view": 0
  },
  {
    "link_thumb": "https://live.staticflickr.com/65535/49711019671_0242133acb_n.jpg",
    "id_album": "-1846011410",
    "description": "Bird_878303",
    "title": "Bird_878303",
    "link_img": "https://live.staticflickr.com/65535/49711019671_0b90d21d2a_o.jpg",
    "id_image": "Bird_878303",
    "count_view": 0
  },
  {
    "link_thumb": "https://live.staticflickr.com/65535/49711637038_8805cc424d_n.jpg",
    "id_album": "46520366",
    "description": "Turtle_546351",
    "title": "Turtle_546351",
    "link_img": "https://live.staticflickr.com/65535/49711637038_1602253a73_o.jpg",
    "id_image": "Turtle_546351",
    "count_view": 0
  },
  {
    "link_thumb": "https://live.staticflickr.com/65535/49711467676_da42945c7f_n.jpg",
    "id_album": "850176884",
    "description": "Dragon_512815",
    "title": "Dragon_512815",
    "link_img": "https://live.staticflickr.com/65535/49711467676_c8e584e4dc_o.jpg",
    "id_image": "Dragon_512815",
    "count_view": 0
  },
  {
    "link_thumb": "https://live.staticflickr.com/65535/49799132112_6e094beef6_n.jpg",
    "id_album": "-1703946758",
    "description": "ANIME_PIC_726db04f5325b6545d1af0d788b0016d",
    "title": "ANIME_PIC_726db04f5325b6545d1af0d788b0016d",
    "link_img": "https://live.staticflickr.com/65535/49799132112_e29955b481_o.jpg",
    "id_image": "ANIME_PIC_726db04f5325b6545d1af0d788b0016d",
    "count_view": 0
  },
  {
    "link_thumb": "https://live.staticflickr.com/65535/49711244106_cc01fa190f_n.jpg",
    "id_album": "-437872736",
    "description": "Creature_520820",
    "title": "Creature_520820",
    "link_img": "https://live.staticflickr.com/65535/49711244106_0e2b1ec82b_o.jpg",
    "id_image": "Creature_520820",
    "count_view": 0
  },
  {
    "link_thumb": "https://live.staticflickr.com/65535/49711777822_50d3e68492_n.jpg",
    "id_album": "850176884",
    "description": "Dragon_476382",
    "title": "Dragon_476382",
    "link_img": "https://live.staticflickr.com/65535/49711777822_03e8b14ff1_o.jpg",
    "id_image": "Dragon_476382",
    "count_view": 0
  },
  {
    "link_thumb": "https://live.staticflickr.com/65535/49710782518_ce3657c152_n.jpg",
    "id_album": "2021464556",
    "description": "Dark_423154",
    "title": "Dark_423154",
    "link_img": "https://live.staticflickr.com/65535/49710782518_c14b9b21e5_o.jpg",
    "id_image": "Dark_423154",
    "count_view": 0
  },
  {
    "link_thumb": "https://live.staticflickr.com/65535/49712295182_938e999cc1_n.jpg",
    "id_album": "-833110404",
    "description": "Landscape_588484",
    "title": "Landscape_588484",
    "link_img": "https://live.staticflickr.com/65535/49712295182_59f44fb147_o.jpg",
    "id_image": "Landscape_588484",
    "count_view": 0
  },
  {
    "link_thumb": "https://live.staticflickr.com/65535/49711422733_7ac24d4965_n.jpg",
    "id_album": "-833110404",
    "description": "Landscape_516512",
    "title": "Landscape_516512",
    "link_img": "https://live.staticflickr.com/65535/49711422733_9c0fab6f6d_o.jpg",
    "id_image": "Landscape_516512",
    "count_view": 0
  },
  {
    "link_thumb": "https://live.staticflickr.com/65535/49710654563_f1dcb6965e_n.jpg",
    "id_album": "-437872736",
    "description": "Creature_314450",
    "title": "Creature_314450",
    "link_img": "https://live.staticflickr.com/65535/49710654563_80eda6e8d7_o.jpg",
    "id_image": "Creature_314450",
    "count_view": 0
  },
  {
    "link_thumb": "https://live.staticflickr.com/65535/49711677082_694c69ed19_n.jpg",
    "id_album": "850176884",
    "description": "DRAGON26101916503461",
    "title": "DRAGON26101916503461",
    "link_img": "https://live.staticflickr.com/65535/49711677082_5a69681d13_o.jpg",
    "id_image": "DRAGON26101916503461",
    "count_view": 0
  },
  {
    "link_thumb": "https://live.staticflickr.com/65535/49711399737_de6dd5aa79_n.jpg",
    "id_album": "-1741487325",
    "description": "Cat_975864",
    "title": "Cat_975864",
    "link_img": "https://live.staticflickr.com/65535/49711399737_0dbefb674a_o.jpg",
    "id_image": "Cat_975864",
    "count_view": 0
  },
  {
    "link_thumb": "https://live.staticflickr.com/65535/49712700272_2f57cf9d63_n.jpg",
    "id_album": "295204930",
    "description": "Women_329345",
    "title": "Women_329345",
    "link_img": "https://live.staticflickr.com/65535/49712700272_c32c126129_o.jpg",
    "id_image": "Women_329345",
    "count_view": 0
  },
  {
    "link_thumb": "https://live.staticflickr.com/65535/49711182338_23a1aa2a80_n.jpg",
    "id_album": "-1083189875",
    "description": "Forest_869609",
    "title": "Forest_869609",
    "link_img": "https://live.staticflickr.com/65535/49711182338_2d8e9445e8_o.jpg",
    "id_image": "Forest_869609",
    "count_view": 0
  },
  {
    "link_thumb": "https://live.staticflickr.com/65535/49710629183_41ced313e3_n.jpg",
    "id_album": "-437872736",
    "description": "Creature_239763",
    "title": "Creature_239763",
    "link_img": "https://live.staticflickr.com/65535/49710629183_ab2135b4da_o.jpg",
    "id_image": "Creature_239763",
    "count_view": 0
  },
  {
    "link_thumb": "https://live.staticflickr.com/65535/49711704206_ca361632a8_n.jpg",
    "id_album": "-1083189875",
    "description": "Forest_689459",
    "title": "Forest_689459",
    "link_img": "https://live.staticflickr.com/65535/49711704206_ff269bace1_o.jpg",
    "id_image": "Forest_689459",
    "count_view": 0
  },
  {
    "link_thumb": "https://live.staticflickr.com/65535/49710459608_bb7a0f186b_n.jpg",
    "id_album": "1187037014",
    "description": "Battle_323919",
    "title": "Battle_323919",
    "link_img": "https://live.staticflickr.com/65535/49710459608_1d7d4940b2_o.jpg",
    "id_image": "Battle_323919",
    "count_view": 0
  },
  {
    "link_thumb": "https://live.staticflickr.com/65535/49710459033_731a778ac7_n.jpg",
    "id_album": "1187037014",
    "description": "Battle_320302",
    "title": "Battle_320302",
    "link_img": "https://live.staticflickr.com/65535/49710459033_7704ea05d8_o.jpg",
    "id_image": "Battle_320302",
    "count_view": 0
  },
  {
    "link_thumb": "https://live.staticflickr.com/65535/49711865158_349a26099f_n.jpg",
    "id_album": "295204930",
    "description": "Women_446668",
    "title": "Women_446668",
    "link_img": "https://live.staticflickr.com/65535/49711865158_31dd273eb8_o.jpg",
    "id_image": "Women_446668",
    "count_view": 0
  },
  {
    "link_thumb": "https://live.staticflickr.com/65535/49711355761_3a45f22594_n.jpg",
    "id_album": "850176884",
    "description": "Dragon_11460",
    "title": "Dragon_11460",
    "link_img": "https://live.staticflickr.com/65535/49711355761_4b646cbc56_o.jpg",
    "id_image": "Dragon_11460",
    "count_view": 0
  },
  {
    "link_thumb": "https://live.staticflickr.com/65535/49710784178_cdd1081a5c_n.jpg",
    "id_album": "2021464556",
    "description": "Dark_680407",
    "title": "Dark_680407",
    "link_img": "https://live.staticflickr.com/65535/49710784178_8c5e838a18_o.jpg",
    "id_image": "Dark_680407",
    "count_view": 0
  },
  {
    "link_thumb": "https://live.staticflickr.com/65535/49712607757_a0d6fcb191_n.jpg",
    "id_album": "-709711865",
    "description": "Wolf_676256",
    "title": "Wolf_676256",
    "link_img": "https://live.staticflickr.com/65535/49712607757_be0a8aae5d_o.jpg",
    "id_image": "Wolf_676256",
    "count_view": 0
  },
  {
    "link_thumb": "https://live.staticflickr.com/65535/49712187852_8de2a2e192_n.jpg",
    "id_album": "1402713104",
    "description": "Landscape_944297",
    "title": "Landscape_944297",
    "link_img": "https://live.staticflickr.com/65535/49712187852_63ea13bb66_o.jpg",
    "id_image": "Landscape_944297",
    "count_view": 0
  },
  {
    "link_thumb": "https://live.staticflickr.com/65535/49710533048_a1fd0d59e1_n.jpg",
    "id_album": "-1541846310",
    "description": "Castle_943085",
    "title": "Castle_943085",
    "link_img": "https://live.staticflickr.com/65535/49710533048_b064f3fa77_o.jpg",
    "id_image": "Castle_943085",
    "count_view": 0
  },
  {
    "link_thumb": "https://live.staticflickr.com/65535/49711401507_5c714aae4d_n.jpg",
    "id_album": "430704260",
    "description": "Child_617913",
    "title": "Child_617913",
    "link_img": "https://live.staticflickr.com/65535/49711401507_6efaeff7a7_o.jpg",
    "id_image": "Child_617913",
    "count_view": 0
  },
  {
    "link_thumb": "https://live.staticflickr.com/65535/49711394797_4818329640_n.jpg",
    "id_album": "-1741487325",
    "description": "Cat_698014",
    "title": "Cat_698014",
    "link_img": "https://live.staticflickr.com/65535/49711394797_ac1cfbe021_o.jpg",
    "id_image": "Cat_698014",
    "count_view": 0
  },
  {
    "link_thumb": "https://live.staticflickr.com/65535/49710568273_6ee6a0bcaa_n.jpg",
    "id_album": "-1964113117",
    "description": "City_504694",
    "title": "City_504694",
    "link_img": "https://live.staticflickr.com/65535/49710568273_90200c8a6a_o.jpg",
    "id_image": "City_504694",
    "count_view": 0
  },
  {
    "link_thumb": "https://live.staticflickr.com/65535/49711758551_e10a27cde6_n.jpg",
    "id_album": "-1933715543",
    "description": "Horse_592598",
    "title": "Horse_592598",
    "link_img": "https://live.staticflickr.com/65535/49711758551_d80dd54b46_o.jpg",
    "id_image": "Horse_592598",
    "count_view": 0
  },
  {
    "link_thumb": "https://live.staticflickr.com/65535/49711507302_276248c40b_n.jpg",
    "id_album": "-437872736",
    "description": "Creature_302418",
    "title": "Creature_302418",
    "link_img": "https://live.staticflickr.com/65535/49711507302_4ee90c3e7f_o.jpg",
    "id_image": "Creature_302418",
    "count_view": 0
  },
  {
    "link_thumb": "https://live.staticflickr.com/65535/49711390807_22bb4380d4_n.jpg",
    "id_album": "-1541846310",
    "description": "Castle_904750",
    "title": "Castle_904750",
    "link_img": "https://live.staticflickr.com/65535/49711390807_e8919f5a3e_o.jpg",
    "id_image": "Castle_904750",
    "count_view": 0
  },
  {
    "link_thumb": "https://live.staticflickr.com/65535/49711560717_b724999146_n.jpg",
    "id_album": "-437872736",
    "description": "Creature_488495",
    "title": "Creature_488495",
    "link_img": "https://live.staticflickr.com/65535/49711560717_a5c31e210d_o.jpg",
    "id_image": "Creature_488495",
    "count_view": 0
  },
  {
    "link_thumb": "https://live.staticflickr.com/65535/49711515113_fe2783a03c_n.jpg",
    "id_album": "1892085513",
    "description": "Oriental_958230",
    "title": "Oriental_958230",
    "link_img": "https://live.staticflickr.com/65535/49711515113_68baa722b2_o.jpg",
    "id_image": "Oriental_958230",
    "count_view": 0
  },
  {
    "link_thumb": "https://live.staticflickr.com/65535/49712417476_754be3bbee_n.jpg",
    "id_album": "295204930",
    "description": "Women_731446",
    "title": "Women_731446",
    "link_img": "https://live.staticflickr.com/65535/49712417476_77368245f1_o.jpg",
    "id_image": "Women_731446",
    "count_view": 0
  },
  {
    "link_thumb": "https://live.staticflickr.com/65535/49712161031_2d1ac496bd_n.jpg",
    "id_album": "405170427",
    "description": "Tiger_642280",
    "title": "Tiger_642280",
    "link_img": "https://live.staticflickr.com/65535/49712161031_e8eab54440_o.jpg",
    "id_image": "Tiger_642280",
    "count_view": 0
  },
  {
    "link_thumb": "https://live.staticflickr.com/65535/49712197747_82ece5345a_n.jpg",
    "id_album": "1402713104",
    "description": "Landscape_960704",
    "title": "Landscape_960704",
    "link_img": "https://live.staticflickr.com/65535/49712197747_de97dd92d6_o.jpg",
    "id_image": "Landscape_960704",
    "count_view": 0
  },
  {
    "link_thumb": "https://live.staticflickr.com/65535/49710866088_f7ce5506fc_n.jpg",
    "id_album": "850176884",
    "description": "Dragon_255080",
    "title": "Dragon_255080",
    "link_img": "https://live.staticflickr.com/65535/49710866088_a93706fa84_o.jpg",
    "id_image": "Dragon_255080",
    "count_view": 0
  },
  {
    "link_thumb": "https://live.staticflickr.com/65535/49711511426_8f8f10a0e5_n.jpg",
    "id_album": "850176884",
    "description": "Dragon_709123",
    "title": "Dragon_709123",
    "link_img": "https://live.staticflickr.com/65535/49711511426_2c34406dab_o.jpg",
    "id_image": "Dragon_709123",
    "count_view": 0
  },
  {
    "link_thumb": "https://live.staticflickr.com/65535/49710701633_5af8f3772e_n.jpg",
    "id_album": "-437872736",
    "description": "Creature_498912",
    "title": "Creature_498912",
    "link_img": "https://live.staticflickr.com/65535/49710701633_695a1c5d7b_o.jpg",
    "id_image": "Creature_498912",
    "count_view": 0
  },
  {
    "link_thumb": "https://live.staticflickr.com/65535/49711867143_d5e1b8c148_n.jpg",
    "id_album": "295204930",
    "description": "Women_461858",
    "title": "Women_461858",
    "link_img": "https://live.staticflickr.com/65535/49711867143_a83fa98139_o.jpg",
    "id_image": "Women_461858",
    "count_view": 0
  },
  {
    "link_thumb": "https://live.staticflickr.com/65535/49711562476_0a1cdfc7ed_n.jpg",
    "id_album": "850176884",
    "description": "Dragon_912946",
    "title": "Dragon_912946",
    "link_img": "https://live.staticflickr.com/65535/49711562476_a4a484a39e_o.jpg",
    "id_image": "Dragon_912946",
    "count_view": 0
  },
  {
    "link_thumb": "https://live.staticflickr.com/65535/49712072486_27184b82f7_n.jpg",
    "id_album": "-1326601535",
    "description": "Phoenix_416752",
    "title": "Phoenix_416752",
    "link_img": "https://live.staticflickr.com/65535/49712072486_53200ab0ef_o.jpg",
    "id_image": "Phoenix_416752",
    "count_view": 0
  },
  {
    "link_thumb": "https://live.staticflickr.com/65535/49711415576_1e72e389ce_n.jpg",
    "id_album": "850176884",
    "description": "Dragon_310241",
    "title": "Dragon_310241",
    "link_img": "https://live.staticflickr.com/65535/49711415576_770b944424_o.jpg",
    "id_image": "Dragon_310241",
    "count_view": 0
  },
  {
    "link_thumb": "https://live.staticflickr.com/65535/49711467753_e4724e1462_n.jpg",
    "id_album": "-1613076477",
    "description": "Magic_552093",
    "title": "Magic_552093",
    "link_img": "https://live.staticflickr.com/65535/49711467753_b04868f636_o.jpg",
    "id_image": "Magic_552093",
    "count_view": 0
  },
  {
    "link_thumb": "https://live.staticflickr.com/65535/49711592501_67592b0f41_n.jpg",
    "id_album": "850176884",
    "description": "Dragon_992824",
    "title": "Dragon_992824",
    "link_img": "https://live.staticflickr.com/65535/49711592501_8b65ce1fe3_o.jpg",
    "id_image": "Dragon_992824",
    "count_view": 0
  },
  {
    "link_thumb": "https://live.staticflickr.com/65535/49710497798_391d57b0a0_n.jpg",
    "id_album": "-1541846310",
    "description": "Castle_146450",
    "title": "Castle_146450",
    "link_img": "https://live.staticflickr.com/65535/49710497798_658d17fd1a_o.jpg",
    "id_image": "Castle_146450",
    "count_view": 0
  },
  {
    "link_thumb": "https://live.staticflickr.com/65535/49712543902_656e7efacd_n.jpg",
    "id_album": "-1261420436",
    "description": "Warrior_711449",
    "title": "Warrior_711449",
    "link_img": "https://live.staticflickr.com/65535/49712543902_b9a46a024a_o.jpg",
    "id_image": "Warrior_711449",
    "count_view": 0
  },
  {
    "link_thumb": "https://live.staticflickr.com/65535/49710554598_b627969bff_n.jpg",
    "id_album": "-1964113117",
    "description": "City_197251",
    "title": "City_197251",
    "link_img": "https://live.staticflickr.com/65535/49710554598_eeff60a1ff_o.jpg",
    "id_image": "City_197251",
    "count_view": 0
  },
  {
    "link_thumb": "https://live.staticflickr.com/65535/49711071831_94f497d276_n.jpg",
    "id_album": "-1741487325",
    "description": "Cat_749873",
    "title": "Cat_749873",
    "link_img": "https://live.staticflickr.com/65535/49711071831_e3562e0530_o.jpg",
    "id_image": "Cat_749873",
    "count_view": 0
  },
  {
    "link_thumb": "https://live.staticflickr.com/65535/49711747077_ef07fa47bb_n.jpg",
    "id_album": "850176884",
    "description": "Dragon_331501",
    "title": "Dragon_331501",
    "link_img": "https://live.staticflickr.com/65535/49711747077_eb238f0fff_o.jpg",
    "id_image": "Dragon_331501",
    "count_view": 0
  },
  {
    "link_thumb": "https://live.staticflickr.com/65535/49711342983_c6728ceb7a_n.jpg",
    "id_album": "1402713104",
    "description": "Landscape_968597",
    "title": "Landscape_968597",
    "link_img": "https://live.staticflickr.com/65535/49711342983_846589c116_o.jpg",
    "id_image": "Landscape_968597",
    "count_view": 0
  },
  {
    "link_thumb": "https://live.staticflickr.com/65535/49711280377_8c21cafc03_n.jpg",
    "id_album": "523598895",
    "description": "Artistic_242063",
    "title": "Artistic_242063",
    "link_img": "https://live.staticflickr.com/65535/49711280377_8fafef5c65_o.jpg",
    "id_image": "Artistic_242063",
    "count_view": 0
  },
  {
    "link_thumb": "https://live.staticflickr.com/65535/49711400062_cd00c7603b_n.jpg",
    "id_album": "-1741487325",
    "description": "Cat_995231",
    "title": "Cat_995231",
    "link_img": "https://live.staticflickr.com/65535/49711400062_32aaba9808_o.jpg",
    "id_image": "Cat_995231",
    "count_view": 0
  },
  {
    "link_thumb": "https://live.staticflickr.com/65535/49711164451_980fd95a42_n.jpg",
    "id_album": "-437872736",
    "description": "Creature_240086",
    "title": "Creature_240086",
    "link_img": "https://live.staticflickr.com/65535/49711164451_400d6dc498_o.jpg",
    "id_image": "Creature_240086",
    "count_view": 0
  },
  {
    "link_thumb": "https://live.staticflickr.com/65535/49711614013_9fb52b8b88_n.jpg",
    "id_album": "1209361954",
    "description": "Sylvan_162744",
    "title": "Sylvan_162744",
    "link_img": "https://live.staticflickr.com/65535/49711614013_3a65c2057a_o.jpg",
    "id_image": "Sylvan_162744",
    "count_view": 0
  },
  {
    "link_thumb": "https://live.staticflickr.com/65535/49712216746_10aaa62406_n.jpg",
    "id_album": "-1261420436",
    "description": "Warrior_616930",
    "title": "Warrior_616930",
    "link_img": "https://live.staticflickr.com/65535/49712216746_9a21c06662_o.jpg",
    "id_image": "Warrior_616930",
    "count_view": 0
  },
  {
    "link_thumb": "https://live.staticflickr.com/65535/49711549522_33716fc9e0_n.jpg",
    "id_album": "-437872736",
    "description": "Creature_385486",
    "title": "Creature_385486",
    "link_img": "https://live.staticflickr.com/65535/49711549522_815ddabc7a_o.jpg",
    "id_image": "Creature_385486",
    "count_view": 0
  },
  {
    "link_thumb": "https://live.staticflickr.com/65535/49711478637_5d4b1a6ebf_n.jpg",
    "id_album": "-437872736",
    "description": "Creature_183329",
    "title": "Creature_183329",
    "link_img": "https://live.staticflickr.com/65535/49711478637_9f4bc3d140_o.jpg",
    "id_image": "Creature_183329",
    "count_view": 0
  },
  {
    "link_thumb": "https://live.staticflickr.com/65535/49711284247_c91df7dc19_n.jpg",
    "id_album": "523598895",
    "description": "Artistic_312414",
    "title": "Artistic_312414",
    "link_img": "https://live.staticflickr.com/65535/49711284247_4227dc9e09_o.jpg",
    "id_image": "Artistic_312414",
    "count_view": 0
  },
  {
    "link_thumb": "https://live.staticflickr.com/65535/49710989891_99fdea0f7e_n.jpg",
    "id_album": "1187037014",
    "description": "Battle_291387",
    "title": "Battle_291387",
    "link_img": "https://live.staticflickr.com/65535/49710989891_05f161af55_o.jpg",
    "id_image": "Battle_291387",
    "count_view": 0
  },
  {
    "link_thumb": "https://live.staticflickr.com/65535/49711294522_d53e7f5ffb_n.jpg",
    "id_album": "523598895",
    "description": "Artistic_499462",
    "title": "Artistic_499462",
    "link_img": "https://live.staticflickr.com/65535/49711294522_d289b949b7_o.jpg",
    "id_image": "Artistic_499462",
    "count_view": 0
  },
  {
    "link_thumb": "https://live.staticflickr.com/65535/49710756238_3a03e95648_n.jpg",
    "id_album": "-437872736",
    "description": "Creature_958880",
    "title": "Creature_958880",
    "link_img": "https://live.staticflickr.com/65535/49710756238_997dbc42b8_o.jpg",
    "id_image": "Creature_958880",
    "count_view": 0
  },
  {
    "link_thumb": "https://live.staticflickr.com/65535/49711853313_94f37c5a5a_n.jpg",
    "id_album": "295204930",
    "description": "Women_389094",
    "title": "Women_389094",
    "link_img": "https://live.staticflickr.com/65535/49711853313_70253e6034_o.jpg",
    "id_image": "Women_389094",
    "count_view": 0
  },
  {
    "link_thumb": "https://live.staticflickr.com/65535/49711152421_fa869a7ef9_n.jpg",
    "id_album": "-437872736",
    "description": "Creature_179181",
    "title": "Creature_179181",
    "link_img": "https://live.staticflickr.com/65535/49711152421_9a07a59bdd_o.jpg",
    "id_image": "Creature_179181",
    "count_view": 0
  },
  {
    "link_thumb": "https://live.staticflickr.com/65535/49711021798_ef7eb59931_n.jpg",
    "id_album": "850176884",
    "description": "Dragon_906118",
    "title": "Dragon_906118",
    "link_img": "https://live.staticflickr.com/65535/49711021798_4bb279b8d6_o.jpg",
    "id_image": "Dragon_906118",
    "count_view": 0
  }
]