[
  {
    "link_thumb": "https://live.staticflickr.com/65535/49711986641_8956be26e7_n.jpg",
    "id_album": "1006968559",
    "description": "LordoftheRings_114236",
    "title": "LordoftheRings_114236",
    "link_img": "https://live.staticflickr.com/65535/49711986641_aa1aa9f4c2_o.jpg",
    "id_image": "LordoftheRings_114236",
    "count_view": 0
  },
  {
    "link_thumb": "https://live.staticflickr.com/65535/49712309862_cf13a98d7c_n.jpg",
    "id_album": "1006968559",
    "description": "LordoftheRings_172383",
    "title": "LordoftheRings_172383",
    "link_img": "https://live.staticflickr.com/65535/49712309862_39d5e5c178_o.jpg",
    "id_image": "LordoftheRings_172383",
    "count_view": 0
  },
  {
    "link_thumb": "https://live.staticflickr.com/65535/49711452073_597e664b38_n.jpg",
    "id_album": "1006968559",
    "description": "LordoftheRings_173467",
    "title": "LordoftheRings_173467",
    "link_img": "https://live.staticflickr.com/65535/49711452073_d5d3d59373_o.jpg",
    "id_image": "LordoftheRings_173467",
    "count_view": 0
  },
  {
    "link_thumb": "https://live.staticflickr.com/65535/49712310197_c600aa522a_n.jpg",
    "id_album": "1006968559",
    "description": "LordoftheRings_174335",
    "title": "LordoftheRings_174335",
    "link_img": "https://live.staticflickr.com/65535/49712310197_06c958f891_o.jpg",
    "id_image": "LordoftheRings_174335",
    "count_view": 0
  },
  {
    "link_thumb": "https://live.staticflickr.com/65535/49711988136_d3487404da_n.jpg",
    "id_album": "1006968559",
    "description": "LordoftheRings_185794",
    "title": "LordoftheRings_185794",
    "link_img": "https://live.staticflickr.com/65535/49711988136_d3cfeb01f9_o.jpg",
    "id_image": "LordoftheRings_185794",
    "count_view": 0
  },
  {
    "link_thumb": "https://live.staticflickr.com/65535/49712310572_561f67490c_n.jpg",
    "id_album": "1006968559",
    "description": "LordoftheRings_207128",
    "title": "LordoftheRings_207128",
    "link_img": "https://live.staticflickr.com/65535/49712310572_c2096642a2_o.jpg",
    "id_image": "LordoftheRings_207128",
    "count_view": 0
  },
  {
    "link_thumb": "https://live.staticflickr.com/65535/49711452658_1385795792_n.jpg",
    "id_album": "1006968559",
    "description": "LordoftheRings_236060",
    "title": "LordoftheRings_236060",
    "link_img": "https://live.staticflickr.com/65535/49711452658_cda6886a10_o.jpg",
    "id_image": "LordoftheRings_236060",
    "count_view": 0
  },
  {
    "link_thumb": "https://live.staticflickr.com/65535/49712310822_59ef5164dc_n.jpg",
    "id_album": "1006968559",
    "description": "LordoftheRings_242418",
    "title": "LordoftheRings_242418",
    "link_img": "https://live.staticflickr.com/65535/49712310822_03a36fbf39_o.jpg",
    "id_image": "LordoftheRings_242418",
    "count_view": 0
  },
  {
    "link_thumb": "https://live.staticflickr.com/65535/49711988781_b100dfce11_n.jpg",
    "id_album": "1006968559",
    "description": "LordoftheRings_245722",
    "title": "LordoftheRings_245722",
    "link_img": "https://live.staticflickr.com/65535/49711988781_6d7696737e_o.jpg",
    "id_image": "LordoftheRings_245722",
    "count_view": 0
  },
  {
    "link_thumb": "https://live.staticflickr.com/65535/49711453193_ef0769cdd3_n.jpg",
    "id_album": "1006968559",
    "description": "LordoftheRings_258456",
    "title": "LordoftheRings_258456",
    "link_img": "https://live.staticflickr.com/65535/49711453193_f04dff6afc_o.jpg",
    "id_image": "LordoftheRings_258456",
    "count_view": 0
  },
  {
    "link_thumb": "https://live.staticflickr.com/65535/49712311517_cd68bfd974_n.jpg",
    "id_album": "1006968559",
    "description": "LordoftheRings_332954",
    "title": "LordoftheRings_332954",
    "link_img": "https://live.staticflickr.com/65535/49712311517_5d871a2dde_o.jpg",
    "id_image": "LordoftheRings_332954",
    "count_view": 0
  },
  {
    "link_thumb": "https://live.staticflickr.com/65535/49712312232_4ef0d11a61_n.jpg",
    "id_album": "1006968559",
    "description": "LordoftheRings_482318",
    "title": "LordoftheRings_482318",
    "link_img": "https://live.staticflickr.com/65535/49712312232_f1c9cefe20_o.jpg",
    "id_image": "LordoftheRings_482318",
    "count_view": 0
  },
  {
    "link_thumb": "https://live.staticflickr.com/65535/49711990401_a20d99d077_n.jpg",
    "id_album": "1006968559",
    "description": "LordoftheRings_494436",
    "title": "LordoftheRings_494436",
    "link_img": "https://live.staticflickr.com/65535/49711990401_4fdd6e0b61_o.jpg",
    "id_image": "LordoftheRings_494436",
    "count_view": 0
  },
  {
    "link_thumb": "https://live.staticflickr.com/65535/49712312622_fcaf316412_n.jpg",
    "id_album": "1006968559",
    "description": "LordoftheRings_526762",
    "title": "LordoftheRings_526762",
    "link_img": "https://live.staticflickr.com/65535/49712312622_d1da7d6102_o.jpg",
    "id_image": "LordoftheRings_526762",
    "count_view": 0
  },
  {
    "link_thumb": "https://live.staticflickr.com/65535/49712312897_864dc023b3_n.jpg",
    "id_album": "1006968559",
    "description": "LordoftheRings_528414",
    "title": "LordoftheRings_528414",
    "link_img": "https://live.staticflickr.com/65535/49712312897_e6382c5cc9_o.jpg",
    "id_image": "LordoftheRings_528414",
    "count_view": 0
  },
  {
    "link_thumb": "https://live.staticflickr.com/65535/49711455273_7668a224b5_n.jpg",
    "id_album": "1006968559",
    "description": "LordoftheRings_551161",
    "title": "LordoftheRings_551161",
    "link_img": "https://live.staticflickr.com/65535/49711455273_1234dea441_o.jpg",
    "id_image": "LordoftheRings_551161",
    "count_view": 0
  },
  {
    "link_thumb": "https://live.staticflickr.com/65535/49711455453_2a98f9d959_n.jpg",
    "id_album": "1006968559",
    "description": "LordoftheRings_614690",
    "title": "LordoftheRings_614690",
    "link_img": "https://live.staticflickr.com/65535/49711455453_9dc047c0a1_o.jpg",
    "id_image": "LordoftheRings_614690",
    "count_view": 0
  },
  {
    "link_thumb": "https://live.staticflickr.com/65535/49711455658_deca606af8_n.jpg",
    "id_album": "1006968559",
    "description": "LordoftheRings_683791",
    "title": "LordoftheRings_683791",
    "link_img": "https://live.staticflickr.com/65535/49711455658_963ee23bb3_o.jpg",
    "id_image": "LordoftheRings_683791",
    "count_view": 0
  },
  {
    "link_thumb": "https://live.staticflickr.com/65535/49712313677_0e59e6d7d8_n.jpg",
    "id_album": "1006968559",
    "description": "LordoftheRings_81915",
    "title": "LordoftheRings_81915",
    "link_img": "https://live.staticflickr.com/65535/49712313677_7b60c956a2_o.jpg",
    "id_image": "LordoftheRings_81915",
    "count_view": 0
  },
  {
    "link_thumb": "https://live.staticflickr.com/65535/49711991651_8a164714c8_n.jpg",
    "id_album": "1006968559",
    "description": "LordoftheRings_842661",
    "title": "LordoftheRings_842661",
    "link_img": "https://live.staticflickr.com/65535/49711991651_13581b2044_o.jpg",
    "id_image": "LordoftheRings_842661",
    "count_view": 0
  },
  {
    "link_thumb": "https://live.staticflickr.com/65535/49711991866_9d2e7576f1_n.jpg",
    "id_album": "1006968559",
    "description": "LordoftheRings_84316",
    "title": "LordoftheRings_84316",
    "link_img": "https://live.staticflickr.com/65535/49711991866_9759eb9b6a_o.jpg",
    "id_image": "LordoftheRings_84316",
    "count_view": 0
  },
  {
    "link_thumb": "https://live.staticflickr.com/65535/49712314252_11c6559d1f_n.jpg",
    "id_album": "1006968559",
    "description": "LordoftheRings_858373",
    "title": "LordoftheRings_858373",
    "link_img": "https://live.staticflickr.com/65535/49712314252_d4891df9bd_o.jpg",
    "id_image": "LordoftheRings_858373",
    "count_view": 0
  },
  {
    "link_thumb": "https://live.staticflickr.com/65535/49712314542_d830d0d5e6_n.jpg",
    "id_album": "1006968559",
    "description": "LordoftheRings_928456",
    "title": "LordoftheRings_928456",
    "link_img": "https://live.staticflickr.com/65535/49712314542_9f7c98511a_o.jpg",
    "id_image": "LordoftheRings_928456",
    "count_view": 0
  },
  {
    "link_thumb": "https://live.staticflickr.com/65535/49711992761_b1dc12c9c6_n.jpg",
    "id_album": "1006968559",
    "description": "LordoftheRings_956238",
    "title": "LordoftheRings_956238",
    "link_img": "https://live.staticflickr.com/65535/49711992761_7cb20f8a7f_o.jpg",
    "id_image": "LordoftheRings_956238",
    "count_view": 0
  }
]