[
  {
    "total_img": 0,
    "number_page": 0,
    "title": "Phoenix",
    "tag": "Phoenix,",
    "description": "Phoenix",
    "link_thumb": "https://live.staticflickr.com/65535/49712068881_eeffbb8c12_n.jpg",
    "id_album": "-1326601535",
    "total_view": 45
  }
]